<?xml version="1.0" standalone="no"?>
<!DOCTYPE svg PUBLIC "-//W3C//DTD SVG 1.1//EN" "http://www.w3.org/Graphics/SVG/1.1/DTD/svg11.dtd" >
<svg xmlns="http://www.w3.org/2000/svg" xmlns:xlink="http://www.w3.org/1999/xlink" version="1.1">
<metadata></metadata>
<defs>
<font id="museo_sans300" horiz-adv-x="520" >
<font-face units-per-em="1000" ascent="750" descent="-250" />
<missing-glyph horiz-adv-x="269" />
<glyph unicode="&#xfb01;" horiz-adv-x="552" d="M402 0v446h-229v-446h-68v446h-63v57h63v18q0 58 18.5 98.5t48.5 58t55 24t52 6.5l31 -2v-61q-10 2 -24 2q-18 0 -34.5 -4.5t-36 -16t-31 -39t-11.5 -66.5v-18h297v-503h-68zM400 618v85h71v-85h-71z" />
<glyph unicode="&#xfb02;" horiz-adv-x="567" d="M105 0v440h-63v57h63v24q0 58 18.5 98.5t48.5 58t55 24t52 6.5l31 -2v-61q-10 2 -24 2q-18 0 -34.5 -4.5t-36 -16t-31 -39t-11.5 -66.5v-24h129v-57h-129v-440h-68zM397 119v584h68v-569q0 -76 56 -76l17 1v-61q-12 -2 -25 -2q-116 0 -116 123z" />
<glyph unicode="&#xfb03;" horiz-adv-x="872" d="M425 0v446h-252v-446h-68v446h-63v57h63v18q0 58 18.5 98.5t48.5 58t55 24t52 6.5l31 -2v-61q-10 2 -24 2q-18 0 -34.5 -4.5t-36 -16t-31 -39t-11.5 -66.5v-18h252v18q0 58 18.5 98.5t48.5 58t55 24t52 6.5l31 -2v-61q-10 2 -24 2q-18 0 -34.5 -4.5t-36 -16t-31 -39 t-11.5 -66.5v-18h297v-503h-68v446h-229v-446h-68zM720 618v85h71v-85h-71z" />
<glyph unicode="&#xfb04;" horiz-adv-x="887" d="M425 0v446h-252v-446h-68v446h-63v57h63v18q0 58 18.5 98.5t48.5 58t55 24t52 6.5l31 -2v-61q-10 2 -24 2q-18 0 -34.5 -4.5t-36 -16t-31 -39t-11.5 -66.5v-18h252v18q0 58 18.5 98.5t48.5 58t55 24t52 6.5l31 -2v-61q-10 2 -24 2q-18 0 -34.5 -4.5t-36 -16t-31 -39 t-11.5 -66.5v-18h129v-57h-129v-446h-68zM717 119v584h68v-569q0 -76 56 -76l17 1v-61q-12 -2 -25 -2q-116 0 -116 123z" />
<glyph horiz-adv-x="0" />
<glyph horiz-adv-x="333" />
<glyph unicode=" "  horiz-adv-x="269" />
<glyph unicode="&#x09;" horiz-adv-x="269" />
<glyph unicode="&#xa0;" horiz-adv-x="269" />
<glyph unicode="!" horiz-adv-x="307" d="M121 184l-3 519h70l-3 -519h-64zM116 0v77h77v-77h-77z" />
<glyph unicode="&#x22;" horiz-adv-x="318" d="M190 544v169h59v-169h-59zM69 544v169h59v-169h-59z" />
<glyph unicode="#" horiz-adv-x="724" d="M155 0l34 195h-142l10 56h141l35 196h-141l9 56h142l35 200h61l-35 -200h173l35 200h61l-35 -200h140l-10 -56h-140l-34 -196h139l-9 -56h-140l-34 -195h-61l34 195h-173l-34 -195h-61zM260 251h172l35 196h-173z" />
<glyph unicode="$" horiz-adv-x="557" d="M61 78l42 53l8.5 -8.5t24 -18.5t38.5 -23t51 -18.5t62 -8.5q60 0 100 33.5t40 88.5q0 47 -36.5 80.5t-88.5 56t-104 46.5t-88.5 66t-36.5 101q0 70 51 123t133 63v95h56v-93q48 -3 90 -19.5t59 -32.5l18 -15l-34 -58q-7 7 -20 17t-53.5 26.5t-80.5 16.5q-66 0 -107 -36 t-41 -85q0 -37 26 -66t65.5 -46t85 -38.5t85 -43.5t65.5 -62.5t26 -93.5q0 -74 -50 -127t-134 -61v-93h-56v93q-56 4 -105 26t-70 42z" />
<glyph unicode="%" horiz-adv-x="730" d="M196 437q-58 0 -99 40.5t-41 98.5q0 57 41 98t99 41t99.5 -41t41.5 -98q0 -58 -41 -98.5t-100 -40.5zM62 0l536 703h71l-535 -703h-72zM196 493q34 0 58 24t24 59q0 34 -24 58.5t-58 24.5t-57.5 -24.5t-23.5 -58.5q0 -35 23.5 -59t57.5 -24zM394 126q0 58 41 99t99 41 t99.5 -41t41.5 -99q0 -57 -41.5 -97.5t-99.5 -40.5t-99 40.5t-41 97.5zM454 127q0 -35 23 -59t57 -24t58 24t24 59q0 34 -24 58.5t-58 24.5t-57 -24.5t-23 -58.5z" />
<glyph unicode="&#x26;" horiz-adv-x="674" d="M60 194q0 63 34 115t94 70v2q-4 1 -10.5 4t-23.5 15t-30 28t-23.5 45t-10.5 64q0 81 57.5 129.5t153.5 48.5q15 0 35 -2.5t32 -4.5l13 -3l-20 -58q-33 7 -58 7q-61 0 -101 -32.5t-40 -88.5q0 -21 5.5 -40t20 -40.5t47 -34t78.5 -12.5h148v99h69v-99h95v-62h-95v-103 q0 -123 -62.5 -188t-170.5 -65q-105 0 -171 58.5t-66 147.5zM131 198q0 -62 45 -103.5t121 -41.5q164 0 164 190v101h-148q-89 0 -135.5 -39t-46.5 -107z" />
<glyph unicode="'" horiz-adv-x="197" d="M69 544v169h59v-169h-59z" />
<glyph unicode="(" horiz-adv-x="290" d="M193 -95q-113 194 -113 432q0 209 113 393h63q-113 -191 -113 -393q0 -229 113 -432h-63z" />
<glyph unicode=")" horiz-adv-x="289" d="M97 -95h-63q113 201 113 432q0 202 -113 393h63q113 -184 113 -393q0 -238 -113 -432z" />
<glyph unicode="*" horiz-adv-x="471" d="M149 337l-53 38l94 120v2l-147 42l20 63l144 -53l-6 154h68l-7 -154l146 52l20 -61l-148 -43v-2l94 -120l-52 -39l-86 127h-2z" />
<glyph unicode="+" horiz-adv-x="688" d="M83 255v58h231v255h61v-255h230v-58h-230v-255h-61v255h-231z" />
<glyph unicode="," horiz-adv-x="244" d="M36 -97l57 179h75l-74 -179h-58z" />
<glyph unicode="-" horiz-adv-x="492" d="M104 253v62h284v-62h-284z" />
<glyph unicode="." horiz-adv-x="247" d="M84 0v80h79v-80h-79z" />
<glyph unicode="/" horiz-adv-x="392" d="M41 -42l254 784h63l-253 -784h-64z" />
<glyph unicode="0" horiz-adv-x="625" d="M313 -12q-243 0 -243 364q0 107 21.5 185t77.5 128t144 50q242 0 242 -363q0 -364 -242 -364zM313 53q170 0 170 299q0 298 -170 298q-171 0 -171 -298q0 -299 171 -299z" />
<glyph unicode="1" horiz-adv-x="466" d="M56 0v62h158v516l1 39h-2q-7 -15 -35 -42l-75 -75l-44 45l159 158h64v-641h155v-62h-381z" />
<glyph unicode="2" horiz-adv-x="565" d="M64 0q-4 21 -4 45q0 50 20 93.5t51.5 75t70 60t77 54.5t70 52.5t51.5 61t20 72.5q0 59 -40.5 97t-105.5 38q-29 0 -55.5 -10t-44.5 -24t-31.5 -28t-19.5 -24l-6 -10l-52 35q3 5 8 13.5t24 30.5t41.5 39t60 30.5t79.5 13.5q98 0 156 -56t58 -141q0 -48 -19.5 -89.5 t-51 -72t-69.5 -58t-75.5 -53t-69 -52t-51.5 -60t-20 -71.5h367v-62h-439z" />
<glyph unicode="3" horiz-adv-x="562" d="M45 84l42 53q8 -9 23 -23t62 -37t95 -23q65 0 113 43t48 109q0 71 -51.5 110.5t-125.5 39.5h-48l-17 41l176 206l37 39v2q-20 -3 -57 -3h-264v62h411v-46l-210 -242q37 -2 72.5 -13.5t70 -34.5t56 -64t21.5 -95q0 -91 -66 -155.5t-165 -64.5q-39 0 -76 10t-62.5 24 t-45.5 28t-30 24z" />
<glyph unicode="4" horiz-adv-x="597" d="M34 195v45l346 463h75v-447h100v-61h-100v-195h-69v195h-352zM118 256h268v294l3 66h-2q-16 -28 -35 -53l-234 -305v-2z" />
<glyph unicode="5" horiz-adv-x="558" d="M54 88l44 48q2 -3 6 -8.5t19 -20t32 -25t44.5 -19.5t57.5 -9q74 0 124.5 47t50.5 118t-51 118t-127 47q-33 0 -65 -9.5t-47 -18.5l-16 -10l-44 16l38 341h340v-62h-280l-20 -180l-7 -40h2q44 27 107 27q105 0 173.5 -66.5t68.5 -162.5q0 -97 -70.5 -164t-173.5 -67 q-39 0 -74.5 10.5t-58.5 25t-40.5 29t-24.5 25.5z" />
<glyph unicode="6" horiz-adv-x="595" d="M319 -12q-114 0 -184 93t-70 237q0 69 18.5 137t54 127t97 96t139.5 37q35 0 67 -7.5t47 -14.5l15 -7l-26 -61q-44 25 -102 25q-70 0 -122.5 -43t-79 -104.5t-32.5 -134.5h2q25 37 74 59.5t104 22.5q96 0 157.5 -63.5t61.5 -163.5q0 -107 -63 -171t-158 -64zM318 53 q70 0 110.5 47.5t40.5 121.5q0 75 -43.5 120.5t-115.5 45.5q-68 0 -119 -38t-51 -82q0 -76 52 -145.5t126 -69.5z" />
<glyph unicode="7" d="M97 0l284 576q8 17 18 33l15 24l6 8v2q-18 -2 -53 -2h-329v62h457v-48l-326 -655h-72z" />
<glyph unicode="8" horiz-adv-x="602" d="M64 202q0 39 15 75t37.5 60.5t37 37t25.5 19.5q-87 57 -87 143q0 74 55.5 126t156.5 52q98 0 156.5 -50t58.5 -133q0 -45 -22 -92.5t-37 -66.5t-27 -31q102 -58 102 -151q0 -84 -66.5 -143.5t-166.5 -59.5q-99 0 -168.5 58.5t-69.5 155.5zM464 192q0 26 -12.5 47 t-39.5 39t-49.5 29.5t-64.5 29t-62 27.5q-12 -7 -25.5 -18.5t-32.5 -31.5t-31 -49t-12 -60q0 -68 50 -110.5t117 -42.5q65 0 113.5 40t48.5 100zM162 536q0 -22 10 -41.5t22 -32t38.5 -27.5t42 -22t51.5 -22t50 -21q12 11 25.5 28t30.5 55t17 76q0 56 -40.5 89t-104.5 33 q-65 0 -103.5 -33t-38.5 -82z" />
<glyph unicode="9" horiz-adv-x="594" d="M220 -12q-34 0 -66.5 7t-47.5 15l-15 7l26 61q44 -25 102 -25q103 0 163.5 83.5t71.5 198.5h-2q-26 -37 -75 -59.5t-104 -22.5q-96 0 -157 63.5t-61 163.5q0 107 62.5 171t157.5 64q114 0 184 -93t70 -237q0 -69 -18.5 -136.5t-54 -127t-97 -96.5t-139.5 -37zM284 315 q69 0 119.5 38t50.5 82q0 76 -52 145.5t-126 69.5q-70 0 -110.5 -47.5t-40.5 -121.5q0 -75 43.5 -120.5t115.5 -45.5z" />
<glyph unicode=":" horiz-adv-x="293" d="M107 423v80h79v-80h-79zM107 0v80h79v-80h-79z" />
<glyph unicode=";" horiz-adv-x="293" d="M62 -97l49 179h75l-66 -179h-58zM111 423v80h79v-80h-79z" />
<glyph unicode="&#x3c;" horiz-adv-x="567" d="M50 259v50l452 202v-67l-367 -159v-2l367 -159v-67z" />
<glyph unicode="=" horiz-adv-x="684" d="M109 342v58h466v-58h-466zM109 168v58h466v-58h-466z" />
<glyph unicode="&#x3e;" horiz-adv-x="567" d="M65 57v67l367 159v2l-367 159v67l452 -202v-50z" />
<glyph unicode="?" horiz-adv-x="481" d="M154 184v45q0 44 18 80t43.5 60.5t51.5 47.5t44 53.5t18 65.5q0 49 -37 82t-94 33q-30 0 -60.5 -10.5t-45.5 -21.5l-15 -11l-37 51q7 6 20 15.5t55 25.5t86 16q86 0 143 -50t57 -127q0 -46 -18.5 -83t-44.5 -61.5t-52.5 -47.5t-45 -53.5t-18.5 -66.5v-43h-68zM150 0v77 h77v-77h-77z" />
<glyph unicode="@" horiz-adv-x="805" d="M65 242q0 153 104.5 260t251.5 107q126 0 185.5 -54t59.5 -135v-315h71v-56h-269q-85 0 -142.5 56.5t-57.5 135.5t57 135.5t143 56.5h130q-2 50 -45 83.5t-127 33.5q-122 0 -206.5 -90.5t-84.5 -217.5q0 -129 84.5 -217.5t211.5 -88.5v-60q-155 0 -260.5 106.5 t-105.5 259.5zM338 242q0 -57 39.5 -97t96.5 -40h124v275h-122q-59 0 -98.5 -40.5t-39.5 -97.5z" />
<glyph unicode="A" horiz-adv-x="616" d="M530 0l-81 224h-283l-80 -224h-73l258 703h74l258 -703h-73zM309 630h-2q-15 -58 -27 -91l-94 -255h242l-92 255z" />
<glyph unicode="B" horiz-adv-x="626" d="M102 0v703h240q85 0 137.5 -48t52.5 -129q0 -108 -89 -153v-2q54 -15 86 -62.5t32 -111.5q0 -91 -60 -144t-151 -53h-248zM171 398h171q53 0 86 34t33 89t-32 87.5t-88 32.5h-170v-243zM171 62h180q64 0 101 37t37 100t-38.5 101t-100.5 38h-179v-276z" />
<glyph unicode="C" horiz-adv-x="728" d="M55 356q0 153 101 256t252 103q47 0 90.5 -9.5t71.5 -22.5t49.5 -26.5t31.5 -22.5l10 -10l-37 -51q-3 3 -9.5 8.5t-28 19t-44.5 23.5t-59 18.5t-73 8.5q-123 0 -203 -84.5t-80 -209.5q0 -128 80.5 -216.5t204.5 -88.5q40 0 78 9.5t64 23.5t46.5 28t29.5 23l10 10l40 -49 l-11.5 -11.5t-33.5 -26.5t-55 -33t-75 -26t-94 -12q-154 0 -255 106t-101 262z" />
<glyph unicode="D" horiz-adv-x="740" d="M102 0v703h227q160 0 256.5 -93.5t96.5 -257.5q0 -166 -96 -259t-257 -93h-227zM171 62h151q132 0 210 75.5t78 214.5q0 138 -78 213.5t-210 75.5h-151v-579z" />
<glyph unicode="E" horiz-adv-x="571" d="M102 0v703h396v-62h-327v-256h267v-62h-267v-261h345v-62h-414z" />
<glyph unicode="F" horiz-adv-x="514" d="M102 0v703h370v-62h-301v-264h258v-62h-258v-315h-69z" />
<glyph unicode="G" horiz-adv-x="758" d="M55 352q0 153 101.5 258t252.5 105q72 0 134.5 -20.5t88.5 -40.5l27 -21l-37 -52q-9 8 -26.5 19.5t-72 31t-111.5 19.5q-126 0 -205.5 -85.5t-79.5 -212.5q0 -130 79.5 -215.5t199.5 -85.5q61 0 116 26t80 52l25 25v119h-120v62h186v-336h-64v53l1 30h-2 q-3 -4 -9.5 -10.5t-28.5 -22.5t-46.5 -28.5t-64 -23t-80.5 -10.5q-145 0 -244.5 104t-99.5 260z" />
<glyph unicode="H" horiz-adv-x="750" d="M102 0v703h69v-320h408v320h69v-703h-69v321h-408v-321h-69z" />
<glyph unicode="I" horiz-adv-x="273" d="M102 0v703h69v-703h-69z" />
<glyph unicode="J" horiz-adv-x="524" d="M35 197v28h69v-26q0 -75 37.5 -111t91.5 -36q53 0 90.5 35t37.5 110v444h-172v62h241v-506q0 -106 -58 -157.5t-140 -51.5q-81 0 -139 52t-58 157z" />
<glyph unicode="K" horiz-adv-x="601" d="M102 0v703h69v-305h119l189 305h79l-210 -332v-2l224 -369h-81l-201 336h-119v-336h-69z" />
<glyph unicode="L" horiz-adv-x="518" d="M102 0v703h69v-641h326v-62h-395z" />
<glyph unicode="M" horiz-adv-x="854" d="M80 0l56 703h72l184 -413l34 -86h2q19 50 35 86l184 413h71l56 -703h-69l-39 492l-2 98h-2q-21 -62 -37 -98l-165 -361h-65l-165 361l-38 100h-2q1 -62 -2 -100l-39 -492h-69z" />
<glyph unicode="N" horiz-adv-x="753" d="M102 0v703h67l359 -506l58 -95h2q-6 58 -6 95v506h69v-703h-67l-359 506l-58 95h-2q6 -58 6 -95v-506h-69z" />
<glyph unicode="O" horiz-adv-x="824" d="M54 356q0 151 104 255t254 104t254 -104t104 -255q0 -154 -104.5 -261t-253.5 -107t-253.5 107t-104.5 261zM126 356q0 -128 83 -216t203 -88q119 0 202.5 88t83.5 216q0 125 -83.5 210t-202.5 85q-120 0 -203 -85t-83 -210z" />
<glyph unicode="P" horiz-adv-x="598" d="M102 0v703h243q96 0 156.5 -58t60.5 -154q0 -97 -60.5 -156t-156.5 -59h-174v-276h-69zM171 338h165q71 0 113 41t42 112q0 70 -41.5 110t-112.5 40h-166v-303z" />
<glyph unicode="Q" horiz-adv-x="835" d="M54 356q0 151 103.5 255t252.5 104q152 0 256 -104t104 -255q0 -139 -88 -242l87 -87l-42 -43l-86 87q-97 -83 -231 -83q-149 0 -252.5 107t-103.5 261zM126 356q0 -128 82 -216t202 -88q105 0 182 66l-86 88l42 43l85 -87q65 83 65 194q0 126 -83 210.5t-205 84.5 q-120 0 -202 -84.5t-82 -210.5z" />
<glyph unicode="R" horiz-adv-x="628" d="M102 0v703h208q88 0 132 -19q50 -22 78 -69.5t28 -111.5q0 -71 -36.5 -122t-96.5 -68v-2q7 -9 18 -28l153 -283h-79l-159 296h-177v-296h-69zM171 358h167q64 0 101.5 38.5t37.5 104.5q0 89 -64 123q-32 17 -100 17h-142v-283z" />
<glyph unicode="S" horiz-adv-x="538" d="M50 78l41 53l8.5 -8.5t24 -18.5t38.5 -23t51 -18.5t62 -8.5q60 0 100 33.5t40 88.5q0 48 -36 82t-87.5 55.5t-103.5 45t-88 65.5t-36 102q0 78 62 133.5t157 55.5q54 0 101 -17t67 -34l20 -17l-34 -58q-7 7 -20 17t-53 26.5t-81 16.5q-65 0 -106.5 -36t-41.5 -85 q0 -46 36 -77.5t87.5 -52.5t103.5 -44.5t88 -67.5t36 -108q0 -81 -58 -135.5t-155 -54.5q-64 0 -119.5 22.5t-79.5 45.5z" />
<glyph unicode="T" horiz-adv-x="588" d="M260 0v641h-253v62h574v-62h-252v-641h-69z" />
<glyph unicode="U" horiz-adv-x="724" d="M93 245v458h70v-457q0 -90 54 -142t145 -52q92 0 146 52.5t54 143.5v455h69v-458q0 -116 -74 -186.5t-194 -70.5q-121 0 -195.5 70.5t-74.5 186.5z" />
<glyph unicode="V" horiz-adv-x="618" d="M273 0l-261 703h74l195 -534l27 -91h2q14 55 27 91l195 534h74l-261 -703h-72z" />
<glyph unicode="W" horiz-adv-x="927" d="M463 600h-2q-11 -60 -23 -105l-134 -495h-83l-182 703h72l136 -546l16 -75h2l2 10q2 11 6 30t8 35l148 546h66l148 -546q4 -16 8 -35t6 -30l2 -10h2q7 39 16 75l141 546h72l-187 -703h-83l-134 495z" />
<glyph unicode="X" horiz-adv-x="592" d="M26 0l224 367l-204 336h81l123 -208l46 -81h2q20 45 42 81l124 208h82l-206 -336l225 -367h-80l-146 243l-44 78h-2q-21 -42 -43 -79l-144 -242h-80z" />
<glyph unicode="Y" horiz-adv-x="574" d="M252 0v302l-237 401h79l149 -255l43 -84h2q21 47 43 84l149 255h78l-236 -401v-302h-70z" />
<glyph unicode="Z" horiz-adv-x="595" d="M43 0v49l363 528l49 64v2q-17 -2 -51 -2h-342v62h479v-49l-363 -528q-12 -17 -24.5 -33t-19.5 -23l-6 -8v-2q18 2 52 2h364v-62h-501z" />
<glyph unicode="[" horiz-adv-x="282" d="M107 -95v825h135v-56h-72v-713h72v-56h-135z" />
<glyph unicode="\" horiz-adv-x="393" d="M288 -42l-254 784h64l253 -784h-63z" />
<glyph unicode="]" horiz-adv-x="282" d="M40 -39h72v713h-72v56h135v-825h-135v56z" />
<glyph unicode="^" horiz-adv-x="606" d="M73 250l198 453h47l198 -453h-65l-156 370l-156 -370h-66z" />
<glyph unicode="_" horiz-adv-x="584" d="M34 0h516v-58h-516v58z" />
<glyph unicode="`" horiz-adv-x="504" d="M264 752l-86 119h79l69 -119h-62z" />
<glyph unicode="a" d="M41 137q0 174 308 174h28v13q0 130 -125 130q-37 0 -72.5 -12t-52.5 -24l-17 -12l-32 52q7 6 21.5 15.5t61 25.5t96.5 16q91 0 139.5 -49.5t48.5 -143.5v-322h-65v55l2 42h-2q-2 -4 -5.5 -11.5t-17.5 -26.5t-31.5 -33t-48 -26t-65.5 -12q-69 0 -120 39t-51 110zM111 141 q0 -38 29.5 -66.5t82.5 -28.5q68 0 111 58t43 129v22h-29q-42 0 -72.5 -2.5t-73.5 -12.5t-67 -35t-24 -64z" />
<glyph unicode="b" horiz-adv-x="589" d="M82 0v703h68v-244l-2 -41h2q2 4 5.5 10.5t17.5 23t32 29.5t49 23.5t67 10.5q100 0 159.5 -73t59.5 -191t-63.5 -190.5t-163.5 -72.5q-34 0 -63 10t-47 24.5t-31 29t-18 24.5l-6 10h-2q2 -17 2 -41v-45h-66zM148 250q0 -82 42 -142t118 -60q69 0 115.5 55t46.5 148 q0 92 -44 147t-115 55q-69 0 -116 -51t-47 -152z" />
<glyph unicode="c" horiz-adv-x="549" d="M47 251q0 115 76 189.5t188 74.5q34 0 66 -7.5t52.5 -18t36 -21t22.5 -18.5l7 -7l-35 -51q-6 7 -18 17t-50.5 27t-78.5 17q-84 0 -140 -56.5t-56 -145.5q0 -88 57 -145t141 -57q29 0 56 7.5t45 17.5t32.5 20.5t21.5 17.5l6 8l31 -53q-3 -3 -8 -8.5t-24 -19t-40 -24 t-54.5 -19t-69.5 -8.5q-113 0 -188.5 73.5t-75.5 189.5z" />
<glyph unicode="d" horiz-adv-x="589" d="M49 252q0 118 63 190.5t163 72.5q34 0 63.5 -10t47 -23.5t30.5 -27.5t18 -24l5 -10h2q-2 17 -2 38v245h68v-703h-66v53l2 36h-2l-5.5 -11t-17.5 -24.5t-32 -30.5t-49.5 -24t-68.5 -11q-100 0 -159.5 73t-59.5 191zM119 252q0 -92 44 -147.5t115 -55.5q69 0 116 51t47 152 q0 83 -42 142.5t-118 59.5q-69 0 -115.5 -55t-46.5 -147z" />
<glyph unicode="e" horiz-adv-x="553" d="M47 251q0 120 71.5 192t176.5 72q100 0 155 -66.5t55 -165.5l-2 -35h-386q2 -93 57.5 -146t137.5 -53q41 0 79 15t56 30l18 16l31 -52q-8 -8 -23.5 -19.5t-64 -31t-98.5 -19.5q-113 0 -188 74t-75 189zM120 304h316q-3 75 -43 114.5t-100 39.5q-66 0 -113.5 -40.5 t-59.5 -113.5z" />
<glyph unicode="f" horiz-adv-x="320" d="M105 0v440h-63v57h63v24q0 58 18.5 98.5t48.5 58t55 24t52 6.5l31 -2v-61q-10 2 -24 2q-18 0 -34.5 -4.5t-36 -16t-31 -39t-11.5 -66.5v-24h129v-57h-129v-440h-68z" />
<glyph unicode="g" horiz-adv-x="582" d="M120 -114q62 -35 136 -35q79 0 127.5 39t48.5 119v46l2 36h-2q-47 -88 -159 -88q-101 0 -162.5 72t-61.5 186t59 184t159 70q37 0 68 -8.5t48.5 -21t29.5 -25t16 -20.5l4 -9h2q-1 6 -1 17v55h66v-491q0 -112 -69.5 -167t-171.5 -55q-87 0 -165 40zM284 64 q66 0 107.5 46.5t41.5 150.5q0 192 -159 192q-73 0 -114 -50.5t-41 -140.5t45 -144t120 -54z" />
<glyph unicode="h" horiz-adv-x="593" d="M82 0v703h68v-272l-2 -41h2q18 45 70.5 85t129.5 40q90 0 129 -49t39 -146v-320h-68v302q0 71 -21.5 110t-87.5 39q-64 0 -115 -40t-68 -103q-8 -27 -8 -67v-241h-68z" />
<glyph unicode="i" horiz-adv-x="232" d="M80 618v85h71v-85h-71zM82 0v503h68v-503h-68z" />
<glyph unicode="j" horiz-adv-x="232" d="M81 618v85h70v-85h-70zM82 503h68v-522q0 -59 -18.5 -99t-49 -57.5t-55.5 -24t-52 -6.5l-30 3v59q9 -1 22 -1q18 0 35 4.5t36.5 16.5t31.5 40t12 68v519z" />
<glyph unicode="k" horiz-adv-x="502" d="M82 0v703h68v-392h80l151 192h82l-175 -219v-2l192 -282h-81l-168 252h-81v-252h-68z" />
<glyph unicode="l" horiz-adv-x="247" d="M77 119v584h68v-569q0 -76 56 -76l17 1v-61q-12 -2 -25 -2q-116 0 -116 123z" />
<glyph unicode="m" horiz-adv-x="916" d="M82 0v503h67v-75l-2 -40h2q18 52 71 89.5t111 37.5q133 0 156 -126h2q21 53 72 89.5t113 36.5q89 0 128 -49t39 -146v-320h-68v303q0 71 -23 110.5t-86 39.5q-56 0 -100 -42t-59 -100q-9 -28 -9 -73v-238h-68v303q0 33 -3.5 56t-13.5 46.5t-32.5 35.5t-56.5 12 q-59 0 -103.5 -43t-61.5 -105q-7 -29 -7 -67v-238h-68z" />
<glyph unicode="n" horiz-adv-x="593" d="M82 0v503h67v-75l-2 -40h2q18 46 70 86.5t131 40.5q90 0 129 -49t39 -146v-320h-68v302q0 71 -21.5 110t-87.5 39q-64 0 -115 -39.5t-68 -102.5q-8 -28 -8 -68v-241h-68z" />
<glyph unicode="o" horiz-adv-x="622" d="M45 254q0 111 77.5 186t188.5 75t188.5 -75t77.5 -186q0 -113 -77.5 -189.5t-188.5 -76.5t-188.5 76.5t-77.5 189.5zM115 254q0 -87 57 -146t139 -59t139 59t57 146q0 85 -57 142t-139 57t-139 -57t-57 -142z" />
<glyph unicode="p" horiz-adv-x="589" d="M82 -200v703h65v-49l-2 -39h2l5.5 11t17.5 24t32 30t50 24t69 11q100 0 159.5 -73t59.5 -191t-63 -190.5t-162 -72.5q-34 0 -63.5 10t-47 24t-30.5 28t-18 24l-6 10h-2q2 -18 2 -44v-240h-68zM148 250q0 -81 43 -141.5t117 -60.5q69 0 115.5 55t46.5 148q0 92 -44 147 t-115 55q-69 0 -116 -51t-47 -152z" />
<glyph unicode="q" horiz-adv-x="589" d="M49 252q0 118 63 190.5t163 72.5q34 0 63.5 -10t47.5 -24.5t31 -28.5t18 -24l5 -10h2q-1 16 -1 38v47h66v-703h-68v242l2 44h-2q-2 -4 -5.5 -10.5t-17.5 -23.5t-32 -30t-49 -23.5t-67 -10.5q-100 0 -159.5 73t-59.5 191zM119 252q0 -92 44 -147.5t115 -55.5q69 0 116 51 t47 152q0 83 -42 142.5t-118 59.5q-69 0 -115.5 -55t-46.5 -147z" />
<glyph unicode="r" horiz-adv-x="356" d="M82 0v503h67v-89l-2 -40h2q19 60 60.5 97t98.5 37l27 -3v-67q-12 2 -25 2q-52 0 -90.5 -36t-55.5 -94q-14 -45 -14 -98v-212h-68z" />
<glyph unicode="s" horiz-adv-x="443" d="M41 61l37 49q6 -7 18 -17t51 -27t81 -17q43 0 72 21t29 59q0 30 -28 51.5t-67.5 36.5t-79.5 32.5t-68 49.5t-28 77q0 65 50 102t122 37q30 0 56.5 -5.5t44 -13.5t30.5 -16.5t19 -13.5l5 -6l-31 -52q-5 5 -14.5 12.5t-42 20.5t-69.5 13q-42 0 -71 -19.5t-29 -58.5 q0 -30 28 -51.5t68 -36t79.5 -32t67.5 -49.5t28 -78q0 -62 -48 -101.5t-124 -39.5q-34 0 -66 7.5t-52.5 18t-36.5 21.5t-24 19z" />
<glyph unicode="t" horiz-adv-x="335" d="M101 183v257h-66v57h67v145h67v-145h126v-57h-126v-250q0 -34 8.5 -59t20.5 -39t28 -22t29 -10.5t27 -2.5l23 2v-61q-11 -2 -29 -2q-21 0 -41 3t-45.5 14.5t-44 30.5t-31.5 55t-13 84z" />
<glyph unicode="u" horiz-adv-x="588" d="M75 183v320h68v-302q0 -71 21.5 -110t87.5 -39q83 0 134.5 62t51.5 148v241h68v-503h-66v75l2 40h-2q-19 -46 -70.5 -86.5t-126.5 -40.5q-88 0 -128 48t-40 147z" />
<glyph unicode="v" horiz-adv-x="485" d="M206 0l-193 503h72l140 -369l17 -60h2q8 34 18 60l139 369h71l-192 -503h-74z" />
<glyph unicode="w" horiz-adv-x="801" d="M187 0l-170 503h72l122 -375l15 -54h2q7 30 15 54l124 373h67l124 -373l15 -54h2q7 29 15 54l122 375h72l-170 -503h-74l-123 358l-16 54h-2q-7 -29 -15 -54l-123 -358h-74z" />
<glyph unicode="x" horiz-adv-x="491" d="M245 217h-1q-8 -15 -17 -28l-122 -189h-80l177 262l-162 241h80l108 -169l17 -29h1q9 16 17 29l108 169h80l-162 -241l177 -262h-80l-122 189l-17 28h-2z" />
<glyph unicode="y" horiz-adv-x="499" d="M7 -180l26 54q28 -23 60 -23q59 0 95 82l31 71l-210 499h75l148 -367l18 -53h2q7 28 17 53l145 367h74l-248 -608q-20 -49 -58 -77t-87 -28q-23 0 -45 7.5t-32 14.5z" />
<glyph unicode="z" horiz-adv-x="509" d="M42 0v44l281 353l40 46v2q-17 -2 -50 -2h-259v60h401v-45l-281 -352l-41 -46v-2q18 2 51 2h281v-60h-423z" />
<glyph unicode="{" horiz-adv-x="336" d="M138 83v95q0 29 -9 51.5t-21 34t-24.5 18.5t-21.5 8l-9 2v62q3 0 9 1.5t20.5 9t26 18.5t20.5 34t9 52v82q0 47 12 82t28.5 53t39 28.5t38 13t31.5 2.5h15v-56h-9q-13 0 -25.5 -3.5t-29.5 -15t-27 -38.5t-10 -68v-98q0 -27 -8 -50.5t-20 -37t-24 -23t-20 -12.5l-8 -4v-2 q3 -1 8.5 -3.5t19.5 -12t24.5 -22.5t19 -36.5t8.5 -52.5v-110q0 -40 10.5 -67.5t27 -38.5t29 -15t25.5 -4h9v-56q-6 -1 -15 -1q-16 0 -31.5 2.5t-38 13.5t-39 29t-28.5 53t-12 82z" />
<glyph unicode="|" horiz-adv-x="275" d="M106 -157v945h63v-945h-63z" />
<glyph unicode="}" horiz-adv-x="336" d="M34 -40h10q12 0 24.5 4t29 15t27 38.5t10.5 67.5v110q0 29 8 52.5t20 36.5t24 22.5t20 12.5l8 3v2q-3 1 -8.5 3.5t-19.5 13t-24.5 23.5t-19 36.5t-8.5 50.5v98q0 41 -10 68t-27 38.5t-29 15t-25 3.5h-10v56h16q15 0 30.5 -2.5t38 -13.5t39 -28.5t28.5 -52.5t12 -82v-82 q0 -47 21.5 -75.5t42.5 -33.5l21 -6v-62q-3 0 -9 -1.5t-20.5 -9t-26 -18.5t-20.5 -33.5t-9 -51.5v-95q0 -47 -12 -82t-28.5 -53t-39 -29t-38 -13.5t-30.5 -2.5l-16 1v56z" />
<glyph unicode="~" horiz-adv-x="602" d="M74 209q0 79 34 117t93 38q30 0 54 -10.5t39.5 -26t30 -31t33.5 -26t42 -10.5q40 0 55.5 31t15.5 69h59q0 -79 -34 -117t-93 -38q-37 0 -65.5 16.5t-43.5 35.5t-38.5 35.5t-51.5 16.5q-40 0 -55.5 -31t-15.5 -69h-59z" />
<glyph unicode="&#xa1;" horiz-adv-x="274" d="M98 426v77h77v-77h-77zM102 -200l3 519h64l3 -519h-70z" />
<glyph unicode="&#xa2;" horiz-adv-x="572" d="M270 -13v85q-99 11 -154.5 89t-55.5 191t55.5 190.5t154.5 88.5v84h56v-84q128 -15 187 -148l-64 -24q-50 108 -148 108q-83 0 -126.5 -60t-43.5 -155q0 -96 43 -155.5t127 -59.5q99 0 148 108l64 -25q-28 -62 -75.5 -102t-111.5 -46v-85h-56z" />
<glyph unicode="&#xa3;" horiz-adv-x="589" d="M78 326v55h44v149q0 79 58.5 132t148.5 53q42 0 81 -14.5t57 -28.5l18 -14l-42 -50q-49 42 -114 42q-64 0 -100.5 -35.5t-36.5 -88.5v-145h192v-55h-192v-264h339v-62h-472v62h63v264h-44z" />
<glyph unicode="&#xa5;" horiz-adv-x="601" d="M103 350v51h106l-175 302h79l143 -249q10 -18 21 -40.5t17 -35.5l5 -14h2q20 50 43 90l144 249h79l-176 -302h105v-51h-133l-27 -48v-39h160v-52h-160v-211h-70v211h-163v52h163v39l-28 48h-135z" />
<glyph unicode="&#xa7;" horiz-adv-x="412" d="M140 85l-68 434q-4 16 -4 35q0 70 47.5 115.5t124.5 45.5q31 0 60 -10.5t42 -20.5l14 -11l-35 -47q-34 29 -81 29t-78.5 -28.5t-31.5 -78.5q0 -16 4 -31l66 -432h-60zM55 -20l35 48q35 -30 82 -30t78 29.5t31 79.5q0 17 -4 32l-65 429h60l68 -434q4 -26 4 -35 q0 -70 -48 -115.5t-125 -45.5q-31 0 -60 10.5t-43 21.5z" />
<glyph unicode="&#xa8;" horiz-adv-x="504" d="M297 785v86h62v-86h-62zM146 785v86h61v-86h-61z" />
<glyph unicode="&#xa9;" horiz-adv-x="831" d="M60 352q0 151 103.5 257t249.5 106q149 0 253.5 -106t104.5 -257q0 -153 -104 -258.5t-254 -105.5q-147 0 -250 106t-103 258zM119 352q0 -131 85 -220.5t209 -89.5q127 0 213.5 89.5t86.5 220.5q0 130 -86.5 219.5t-213.5 89.5q-124 0 -209 -89.5t-85 -219.5zM217 350 q0 84 56 145t150 61q31 0 59 -9.5t46 -23t32 -27.5t20 -24l6 -9l-46 -31l-5 7.5t-14 16.5t-23.5 21t-32 16.5t-40.5 7.5q-69 0 -109 -44t-40 -106t39.5 -106t109.5 -44q21 0 40.5 7t32.5 17.5t23 20.5t15 17l4 7l46 -31q-2 -4 -6.5 -10t-19.5 -22t-32.5 -28.5t-45.5 -22.5 t-59 -10q-95 0 -150.5 60.5t-55.5 143.5z" />
<glyph unicode="&#xaa;" horiz-adv-x="427" d="M193 382q-44 0 -77 25t-33 70q0 111 191 111h13v4q0 74 -71 74q-20 0 -41 -7t-32 -15l-11 -7l-26 39q44 37 115 37q59 0 89.5 -31.5t30.5 -91.5v-202h-52v49h-2q-3 -6 -9.5 -15t-31 -24.5t-53.5 -15.5zM201 430q38 0 61.5 32.5t23.5 72.5v9h-12q-135 0 -135 -62 q0 -22 16.5 -37t45.5 -15zM81 264v47h264v-47h-264z" />
<glyph unicode="&#xab;" horiz-adv-x="523" d="M229 282l164 206h74l-164 -206l164 -205h-74zM214 77l-164 205l164 206h73l-164 -206l164 -205h-73z" />
<glyph unicode="&#xac;" horiz-adv-x="623" d="M73 342v58h466v-242h-61v184h-405z" />
<glyph unicode="&#xad;" horiz-adv-x="432" d="M74 253v62h284v-62h-284z" />
<glyph unicode="&#xae;" horiz-adv-x="831" d="M60 352q0 151 103.5 257t249.5 106q149 0 253.5 -106t104.5 -257q0 -153 -104 -258.5t-254 -105.5q-147 0 -250 106t-103 258zM119 352q0 -131 85 -220.5t209 -89.5q127 0 213.5 89.5t86.5 220.5q0 130 -86.5 219.5t-213.5 89.5q-124 0 -209 -89.5t-85 -219.5zM295 157 v390h139q52 0 84.5 -32t32.5 -84q0 -41 -21.5 -68.5t-51.5 -34.5v-2q4 -5 13 -22l75 -147h-62l-78 158h-75v-158h-56zM351 359h73q32 0 50.5 19t18.5 53q0 33 -18.5 51t-50.5 18h-73v-141z" />
<glyph unicode="&#xaf;" horiz-adv-x="504" d="M129 785v55h246v-55h-246z" />
<glyph unicode="&#xb0;" horiz-adv-x="381" d="M190 436q-58 0 -99 40.5t-41 98.5q0 57 41 98t99 41t99.5 -41t41.5 -98q0 -58 -41 -98.5t-100 -40.5zM190 492q34 0 58 24t24 59q0 34 -24 58.5t-58 24.5t-57 -24.5t-23 -58.5q0 -35 23 -59t57 -24z" />
<glyph unicode="&#xb1;" horiz-adv-x="688" d="M83 255v58h231v255h61v-255h230v-58h-230v-255h-61v255h-231zM101 -104h486v-58h-486v58z" />
<glyph unicode="&#xb2;" horiz-adv-x="382" d="M53 423q-3 17 -3 31q0 46 22.5 82t54 59t63.5 43t54.5 45.5t22.5 56.5q0 32 -23 54.5t-59 22.5q-24 0 -46 -12.5t-33 -24.5l-10 -12l-36 35q5 7 14.5 18t42.5 29t70 18q62 0 99 -36t37 -91q0 -41 -21.5 -73t-52.5 -53t-62 -40t-53.5 -45t-24.5 -57h222v-50h-278z" />
<glyph unicode="&#xb3;" horiz-adv-x="382" d="M185 413q-27 0 -51.5 7t-40 16.5t-27.5 19t-18 16.5l-5 7l35 38q4 -6 12.5 -14.5t36 -23t57.5 -14.5q36 0 65 25.5t29 63.5t-29.5 61t-68.5 23h-33l-14 31l99 115l25 25v2q-19 -3 -37 -3h-154v50h263v-36l-119 -138q50 -6 87 -38t37 -92q0 -58 -43 -99.5t-106 -41.5z" />
<glyph unicode="&#xb4;" horiz-adv-x="504" d="M178 752l69 119h79l-86 -119h-62z" />
<glyph unicode="&#xb5;" horiz-adv-x="609" d="M89 -200v703h68v-302q0 -71 22 -110t88 -39q82 0 133.5 62.5t51.5 147.5v241h68v-503h-66v76l2 39h-2q-2 -5 -6.5 -13.5t-21 -30.5t-36.5 -39t-55.5 -30.5t-76.5 -13.5q-37 0 -65 10.5t-37 21.5l-9 10h-2q7 -51 7 -76v-154h-63z" />
<glyph unicode="&#xb6;" horiz-adv-x="573" d="M288 -50v291q-98 0 -168.5 67.5t-70.5 164.5t70 163.5t168 66.5h239v-62h-181v-691h-57zM407 -50v631h58v-631h-58z" />
<glyph unicode="&#xb7;" horiz-adv-x="271" d="M97 248v80h77v-80h-77z" />
<glyph unicode="&#xb8;" horiz-adv-x="504" d="M226 20l40 -7v-8l-11 -60q31 -5 50.5 -23.5t19.5 -47.5q0 -41 -27.5 -60t-68.5 -19l-50 5v48q19 -6 42 -6q51 0 51 34t-57 34l-15 -1z" />
<glyph unicode="&#xb9;" horiz-adv-x="382" d="M74 423v50h95v289l1 24h-1q-4 -8 -21 -25l-40 -38l-35 37l99 98h52v-385h93v-50h-243z" />
<glyph unicode="&#xba;" horiz-adv-x="474" d="M236 383q-70 0 -118.5 48t-48.5 119q0 69 49 116.5t118 47.5t118 -47.5t49 -116.5q0 -71 -48.5 -119t-118.5 -48zM236 434q47 0 79.5 33t32.5 83q0 49 -32.5 81.5t-79.5 32.5t-79.5 -32.5t-32.5 -81.5q0 -50 32.5 -83t79.5 -33zM86 264v47h303v-47h-303z" />
<glyph unicode="&#xbb;" horiz-adv-x="524" d="M236 77l164 205l-164 206h74l164 -206l-164 -205h-74zM56 77l164 205l-164 206h74l164 -206l-164 -205h-74z" />
<glyph unicode="&#xbc;" horiz-adv-x="944" d="M317 0h-59l336 703h58zM63 268v50h95v289l1 24h-1q-4 -8 -21 -25l-40 -38l-35 37l99 98h52v-385h93v-50h-243zM772 0v114h-212v38l212 283h55v-271h65v-50h-65v-114h-55zM628 164h144v136l3 62h-2q-16 -27 -32 -49l-113 -147v-2z" />
<glyph unicode="&#xbd;" horiz-adv-x="942" d="M318 0h-59l336 703h58zM63 268v50h95v289l1 24h-1q-4 -8 -21 -25l-40 -38l-35 37l99 98h52v-385h93v-50h-243zM592 0q-3 16 -3 31q0 46 22.5 82t54.5 59t63.5 43t54 45.5t22.5 56.5q0 32 -23 54.5t-59 22.5q-24 0 -46 -12t-32 -24l-11 -13l-36 35q5 7 14.5 18t42.5 29 t70 18q62 0 99 -36t37 -91q0 -41 -21.5 -73t-52.5 -53t-62 -40t-53.5 -45t-24.5 -57h222v-50h-278z" />
<glyph unicode="&#xbe;" horiz-adv-x="960" d="M333 0h-59l336 703h58zM788 0v114h-212v38l212 283h55v-271h65v-50h-65v-114h-55zM644 164h144v136l3 62h-2q-16 -27 -32 -49l-113 -147v-2zM189 258q-27 0 -51.5 7t-40 16.5t-27.5 19t-18 16.5l-5 7l35 38q4 -6 12.5 -14.5t36 -23t57.5 -14.5q36 0 65 25.5t29 63.5 t-29.5 61t-68.5 23h-33l-14 31l99 115l25 25v2q-19 -3 -37 -3h-154v50h263v-36l-119 -138q50 -6 87 -38t37 -92q0 -58 -43 -99.5t-106 -41.5z" />
<glyph unicode="&#xbf;" horiz-adv-x="440" d="M219 426v77h77v-77h-77zM45 -33q0 46 18.5 82.5t44.5 61.5t52.5 48t45 53.5t18.5 66.5v40h67v-43q0 -43 -18 -78.5t-43.5 -60.5t-51 -48.5t-43.5 -53.5t-18 -65q0 -49 37 -82t94 -33q30 0 60.5 10.5t45.5 20.5l15 11l37 -50q-7 -6 -20 -15.5t-55 -25.5t-86 -16 q-86 0 -143 50t-57 127z" />
<glyph unicode="&#xc0;" horiz-adv-x="616" d="M530 0l-81 224h-283l-80 -224h-73l258 703h74l258 -703h-73zM309 630h-2q-15 -58 -27 -91l-94 -255h242l-92 255zM278 752l-86 119h79l69 -119h-62z" />
<glyph unicode="&#xc1;" horiz-adv-x="616" d="M530 0l-81 224h-283l-80 -224h-73l258 703h74l258 -703h-73zM309 630h-2q-15 -58 -27 -91l-94 -255h242l-92 255zM276 752l69 119h79l-86 -119h-62z" />
<glyph unicode="&#xc2;" horiz-adv-x="616" d="M530 0l-81 224h-283l-80 -224h-73l258 703h74l258 -703h-73zM309 630h-2q-15 -58 -27 -91l-94 -255h242l-92 255zM187 752l83 119h75l84 -119h-66l-54 81h-2l-54 -81h-66z" />
<glyph unicode="&#xc3;" horiz-adv-x="616" d="M530 0l-81 224h-283l-80 -224h-73l258 703h74l258 -703h-73zM309 630h-2q-15 -58 -27 -91l-94 -255h242l-92 255zM152 755q0 117 92 117q29 0 50.5 -18t39.5 -36t36 -18q40 0 40 69h54q0 -117 -92 -117q-29 0 -50.5 18t-39.5 35.5t-36 17.5q-39 0 -39 -68h-55z" />
<glyph unicode="&#xc4;" horiz-adv-x="616" d="M530 0l-81 224h-283l-80 -224h-73l258 703h74l258 -703h-73zM309 630h-2q-15 -58 -27 -91l-94 -255h242l-92 255zM353 785v86h62v-86h-62zM202 785v86h61v-86h-61z" />
<glyph unicode="&#xc5;" horiz-adv-x="616" d="M530 0l-81 224h-283l-80 -224h-73l258 703h74l258 -703h-73zM309 630h-2q-15 -58 -27 -91l-94 -255h242l-92 255zM308 741q-31 0 -53 20t-22 51t22 51t53 20t53.5 -20t22.5 -51t-22.5 -51t-53.5 -20zM308 779q15 0 24 9.5t9 23.5q0 15 -9 24.5t-24 9.5q-14 0 -23 -9.5 t-9 -24.5q0 -14 9 -23.5t23 -9.5z" />
<glyph unicode="&#xc6;" horiz-adv-x="853" d="M10 0l289 703h481v-62h-327v-256h267v-62h-267v-261h345v-62h-414v324h-170l-131 -324h-73zM343 641l-104 -257h145v257h-41z" />
<glyph unicode="&#xc7;" horiz-adv-x="729" d="M56 356q0 153 101 256t252 103q47 0 90.5 -9.5t71.5 -22.5t49.5 -26.5t31.5 -22.5l10 -10l-37 -51q-3 3 -9.5 8.5t-28 19t-44.5 23.5t-59 18.5t-73 8.5q-123 0 -203 -84.5t-80 -209.5q0 -128 80.5 -216.5t204.5 -88.5q40 0 78 9.5t64 23.5t46.5 28t30.5 23l9 10l40 -49 l-11 -11t-32 -25.5t-53 -33t-72.5 -26.5t-90.5 -13l-8 -43q31 -5 50.5 -23.5t19.5 -47.5q0 -41 -27.5 -60t-68.5 -19l-50 5v48q19 -6 42 -6q51 0 51 34t-57 34l-15 -1l19 81q-142 12 -232 115.5t-90 250.5z" />
<glyph unicode="&#xc8;" horiz-adv-x="571" d="M102 0v703h396v-62h-327v-256h267v-62h-267v-261h345v-62h-414zM281 752l-86 119h79l69 -119h-62z" />
<glyph unicode="&#xc9;" horiz-adv-x="571" d="M102 0v703h396v-62h-327v-256h267v-62h-267v-261h345v-62h-414zM279 752l69 119h79l-86 -119h-62z" />
<glyph unicode="&#xca;" horiz-adv-x="571" d="M102 0v703h396v-62h-327v-256h267v-62h-267v-261h345v-62h-414zM191 752l83 119h75l84 -119h-66l-54 81h-2l-54 -81h-66z" />
<glyph unicode="&#xcb;" horiz-adv-x="571" d="M102 0v703h396v-62h-327v-256h267v-62h-267v-261h345v-62h-414zM357 785v86h62v-86h-62zM206 785v86h61v-86h-61z" />
<glyph unicode="&#xcc;" horiz-adv-x="273" d="M102 0v703h69v-703h-69zM107 752l-86 119h79l69 -119h-62z" />
<glyph unicode="&#xcd;" horiz-adv-x="273" d="M102 0v703h69v-703h-69zM104 752l69 119h79l-86 -119h-62z" />
<glyph unicode="&#xce;" horiz-adv-x="273" d="M102 0v703h69v-703h-69zM16 752l83 119h75l84 -119h-66l-54 81h-2l-54 -81h-66z" />
<glyph unicode="&#xcf;" horiz-adv-x="273" d="M102 0v703h69v-703h-69zM182 785v86h62v-86h-62zM31 785v86h61v-86h-61z" />
<glyph unicode="&#xd0;" horiz-adv-x="754" d="M58 323v60h60v320h226q161 0 257 -93.5t96 -257.5q0 -166 -96 -259t-257 -93h-226v323h-60zM187 62h150q132 0 210 75.5t78 214.5q0 138 -78 213.5t-210 75.5h-150v-258h167v-60h-167v-261z" />
<glyph unicode="&#xd1;" horiz-adv-x="753" d="M102 0v703h67l359 -506l58 -95h2q-6 58 -6 95v506h69v-703h-67l-359 506l-58 95h-2q6 -58 6 -95v-506h-69zM221 755q0 117 92 117q29 0 50.5 -18t39.5 -36t36 -18q40 0 40 69h54q0 -117 -92 -117q-29 0 -50.5 18t-39.5 35.5t-36 17.5q-39 0 -39 -68h-55z" />
<glyph unicode="&#xd2;" horiz-adv-x="824" d="M54 356q0 151 104 255t254 104t254 -104t104 -255q0 -154 -104.5 -261t-253.5 -107t-253.5 107t-104.5 261zM126 356q0 -128 83 -216t203 -88q119 0 202.5 88t83.5 216q0 125 -83.5 210t-202.5 85q-120 0 -203 -85t-83 -210zM381 752l-86 119h79l69 -119h-62z" />
<glyph unicode="&#xd3;" horiz-adv-x="824" d="M54 356q0 151 104 255t254 104t254 -104t104 -255q0 -154 -104.5 -261t-253.5 -107t-253.5 107t-104.5 261zM126 356q0 -128 83 -216t203 -88q119 0 202.5 88t83.5 216q0 125 -83.5 210t-202.5 85q-120 0 -203 -85t-83 -210zM379 752l69 119h79l-86 -119h-62z" />
<glyph unicode="&#xd4;" horiz-adv-x="824" d="M54 356q0 151 104 255t254 104t254 -104t104 -255q0 -154 -104.5 -261t-253.5 -107t-253.5 107t-104.5 261zM126 356q0 -128 83 -216t203 -88q119 0 202.5 88t83.5 216q0 125 -83.5 210t-202.5 85q-120 0 -203 -85t-83 -210zM291 752l83 119h75l84 -119h-66l-54 81h-2 l-54 -81h-66z" />
<glyph unicode="&#xd5;" horiz-adv-x="824" d="M54 356q0 151 104 255t254 104t254 -104t104 -255q0 -154 -104.5 -261t-253.5 -107t-253.5 107t-104.5 261zM126 356q0 -128 83 -216t203 -88q119 0 202.5 88t83.5 216q0 125 -83.5 210t-202.5 85q-120 0 -203 -85t-83 -210zM256 755q0 117 92 117q29 0 50.5 -18 t39.5 -36t36 -18q40 0 40 69h54q0 -117 -92 -117q-29 0 -50.5 18t-39.5 35.5t-36 17.5q-39 0 -39 -68h-55z" />
<glyph unicode="&#xd6;" horiz-adv-x="824" d="M54 356q0 151 104 255t254 104t254 -104t104 -255q0 -154 -104.5 -261t-253.5 -107t-253.5 107t-104.5 261zM126 356q0 -128 83 -216t203 -88q119 0 202.5 88t83.5 216q0 125 -83.5 210t-202.5 85q-120 0 -203 -85t-83 -210zM457 785v86h62v-86h-62zM306 785v86h61v-86 h-61z" />
<glyph unicode="&#xd7;" horiz-adv-x="655" d="M72 41l216 243l-216 243l41 41l214 -241l214 241l41 -41l-217 -243l217 -243l-41 -41l-214 241l-214 -241z" />
<glyph unicode="&#xd8;" horiz-adv-x="827" d="M56 356q0 151 104 255t254 104q101 0 189 -53l47 66l41 -30l-47 -66q60 -50 94 -122t34 -154q0 -154 -104.5 -261t-253.5 -107q-105 0 -192 56l-48 -68l-42 29l49 69q-59 51 -92 124.5t-33 157.5zM700 356q0 134 -95 221l-344 -479q70 -46 153 -46q119 0 202.5 88 t83.5 216zM128 356q0 -136 93 -226l343 478q-70 43 -150 43q-120 0 -203 -85t-83 -210z" />
<glyph unicode="&#xd9;" horiz-adv-x="724" d="M93 245v458h70v-457q0 -90 54 -142t145 -52q92 0 146 52.5t54 143.5v455h69v-458q0 -116 -74 -186.5t-194 -70.5q-121 0 -195.5 70.5t-74.5 186.5zM332 752l-86 119h79l69 -119h-62z" />
<glyph unicode="&#xda;" horiz-adv-x="724" d="M93 245v458h70v-457q0 -90 54 -142t145 -52q92 0 146 52.5t54 143.5v455h69v-458q0 -116 -74 -186.5t-194 -70.5q-121 0 -195.5 70.5t-74.5 186.5zM330 752l69 119h79l-86 -119h-62z" />
<glyph unicode="&#xdb;" horiz-adv-x="724" d="M93 245v458h70v-457q0 -90 54 -142t145 -52q92 0 146 52.5t54 143.5v455h69v-458q0 -116 -74 -186.5t-194 -70.5q-121 0 -195.5 70.5t-74.5 186.5zM241 752l83 119h75l84 -119h-66l-54 81h-2l-54 -81h-66z" />
<glyph unicode="&#xdc;" horiz-adv-x="724" d="M93 245v458h70v-457q0 -90 54 -142t145 -52q92 0 146 52.5t54 143.5v455h69v-458q0 -116 -74 -186.5t-194 -70.5q-121 0 -195.5 70.5t-74.5 186.5zM407 785v86h62v-86h-62zM256 785v86h61v-86h-61z" />
<glyph unicode="&#xdd;" horiz-adv-x="574" d="M252 0v302l-237 401h79l149 -255l43 -84h2q21 47 43 84l149 255h78l-236 -401v-302h-70zM254 752l69 119h79l-86 -119h-62z" />
<glyph unicode="&#xde;" horiz-adv-x="599" d="M102 0v703h69v-125h174q95 0 156 -58t61 -155q0 -96 -61.5 -155t-157.5 -59h-172v-151h-69zM171 213h165q71 0 112.5 40.5t41.5 111.5t-41 111t-112 40h-166v-303z" />
<glyph unicode="&#xdf;" horiz-adv-x="573" d="M82 0v531q0 85 60 134.5t141 49.5q78 0 126.5 -44t48.5 -105q0 -35 -17.5 -65.5t-38 -48.5t-38 -40t-17.5 -43q0 -22 30.5 -47.5t67 -47t67 -58.5t30.5 -80q0 -68 -47 -105.5t-115 -37.5q-42 0 -79 8t-53 16l-16 8v65q60 -36 143 -36q41 0 69.5 21.5t28.5 62.5 q0 31 -30.5 60.5t-67.5 49.5t-67.5 52t-30.5 67q0 29 17.5 56t38 45t38 44t17.5 53q0 35 -28.5 61.5t-79.5 26.5q-52 0 -91 -34t-39 -93v-526h-68z" />
<glyph unicode="&#xe0;" d="M41 137q0 174 308 174h28v13q0 130 -125 130q-37 0 -72.5 -12t-52.5 -24l-17 -12l-32 52q7 6 21.5 15.5t61 25.5t96.5 16q91 0 139.5 -49.5t48.5 -143.5v-322h-65v55l2 42h-2q-2 -4 -5.5 -11.5t-17.5 -26.5t-31.5 -33t-48 -26t-65.5 -12q-69 0 -120 39t-51 110zM111 141 q0 -38 29.5 -66.5t82.5 -28.5q68 0 111 58t43 129v22h-29q-42 0 -72.5 -2.5t-73.5 -12.5t-67 -35t-24 -64zM228 584l-86 119h79l69 -119h-62z" />
<glyph unicode="&#xe1;" d="M41 137q0 174 308 174h28v13q0 130 -125 130q-37 0 -72.5 -12t-52.5 -24l-17 -12l-32 52q7 6 21.5 15.5t61 25.5t96.5 16q91 0 139.5 -49.5t48.5 -143.5v-322h-65v55l2 42h-2q-2 -4 -5.5 -11.5t-17.5 -26.5t-31.5 -33t-48 -26t-65.5 -12q-69 0 -120 39t-51 110zM111 141 q0 -38 29.5 -66.5t82.5 -28.5q68 0 111 58t43 129v22h-29q-42 0 -72.5 -2.5t-73.5 -12.5t-67 -35t-24 -64zM225 584l69 119h79l-86 -119h-62z" />
<glyph unicode="&#xe2;" d="M41 137q0 174 308 174h28v13q0 130 -125 130q-37 0 -72.5 -12t-52.5 -24l-17 -12l-32 52q7 6 21.5 15.5t61 25.5t96.5 16q91 0 139.5 -49.5t48.5 -143.5v-322h-65v55l2 42h-2q-2 -4 -5.5 -11.5t-17.5 -26.5t-31.5 -33t-48 -26t-65.5 -12q-69 0 -120 39t-51 110zM111 141 q0 -38 29.5 -66.5t82.5 -28.5q68 0 111 58t43 129v22h-29q-42 0 -72.5 -2.5t-73.5 -12.5t-67 -35t-24 -64zM138 584l83 119h75l84 -119h-66l-54 81h-2l-54 -81h-66z" />
<glyph unicode="&#xe3;" d="M41 137q0 174 308 174h28v13q0 130 -125 130q-37 0 -72.5 -12t-52.5 -24l-17 -12l-32 52q7 6 21.5 15.5t61 25.5t96.5 16q91 0 139.5 -49.5t48.5 -143.5v-322h-65v55l2 42h-2q-2 -4 -5.5 -11.5t-17.5 -26.5t-31.5 -33t-48 -26t-65.5 -12q-69 0 -120 39t-51 110zM111 141 q0 -38 29.5 -66.5t82.5 -28.5q68 0 111 58t43 129v22h-29q-42 0 -72.5 -2.5t-73.5 -12.5t-67 -35t-24 -64zM103 587q0 117 92 117q29 0 50.5 -18t39.5 -36t36 -18q40 0 40 69h54q0 -117 -92 -117q-29 0 -50.5 18t-39.5 35.5t-36 17.5q-39 0 -39 -68h-55z" />
<glyph unicode="&#xe4;" d="M41 137q0 174 308 174h28v13q0 130 -125 130q-37 0 -72.5 -12t-52.5 -24l-17 -12l-32 52q7 6 21.5 15.5t61 25.5t96.5 16q91 0 139.5 -49.5t48.5 -143.5v-322h-65v55l2 42h-2q-2 -4 -5.5 -11.5t-17.5 -26.5t-31.5 -33t-48 -26t-65.5 -12q-69 0 -120 39t-51 110zM111 141 q0 -38 29.5 -66.5t82.5 -28.5q68 0 111 58t43 129v22h-29q-42 0 -72.5 -2.5t-73.5 -12.5t-67 -35t-24 -64zM304 617v86h62v-86h-62zM153 617v86h61v-86h-61z" />
<glyph unicode="&#xe5;" d="M41 137q0 174 308 174h28v13q0 130 -125 130q-37 0 -72.5 -12t-52.5 -24l-17 -12l-32 52q7 6 21.5 15.5t61 25.5t96.5 16q91 0 139.5 -49.5t48.5 -143.5v-322h-65v55l2 42h-2q-2 -4 -5.5 -11.5t-17.5 -26.5t-31.5 -33t-48 -26t-65.5 -12q-69 0 -120 39t-51 110zM111 141 q0 -38 29.5 -66.5t82.5 -28.5q68 0 111 58t43 129v22h-29q-42 0 -72.5 -2.5t-73.5 -12.5t-67 -35t-24 -64zM258 573q-31 0 -53 20t-22 51t22 51t53 20t53.5 -20t22.5 -51t-22.5 -51t-53.5 -20zM258 611q15 0 24 9.5t9 23.5q0 15 -9 24.5t-24 9.5q-14 0 -23 -9.5t-9 -24.5 q0 -14 9 -23.5t23 -9.5z" />
<glyph unicode="&#xe6;" horiz-adv-x="870" d="M41 137q0 34 11.5 61t28.5 44.5t44.5 30.5t51.5 19.5t58 10t55.5 4t52.5 0.5h33v17q0 130 -128 130q-36 0 -70.5 -12t-51.5 -24l-17 -12l-31 51q7 6 21 16t59 26t94 16q137 0 170 -104h2q62 104 190 104q97 0 152.5 -65.5t55.5 -160.5l-2 -38h-378q2 -97 54 -149.5 t134 -52.5q40 0 78 15t56 30l18 16l31 -52q-8 -8 -23 -19.5t-63.5 -31t-99.5 -19.5q-77 0 -135 37t-86 103h-2q-3 -11 -9.5 -25t-22.5 -35.5t-35.5 -38t-52 -29t-70.5 -12.5q-73 0 -123 39.5t-50 109.5zM446 307h307q-3 74 -43.5 112t-98.5 38q-65 0 -109 -38.5t-56 -111.5z M111 141q0 -39 30 -67t83 -28q68 0 110.5 58.5t42.5 129.5v17h-59q-40 0 -69.5 -3t-64.5 -13t-54 -34t-19 -60z" />
<glyph unicode="&#xe7;" horiz-adv-x="550" d="M48 251q0 115 76 189.5t188 74.5q34 0 66 -7.5t52.5 -18t36 -21t22.5 -18.5l7 -7l-35 -51q-6 7 -18 17t-50.5 27t-78.5 17q-84 0 -140 -56.5t-56 -145.5q0 -88 57 -145t141 -57q29 0 56 7.5t45 17.5t32.5 20.5t20.5 17.5l7 8l31 -53q-7 -8 -21.5 -21t-63 -34.5 t-102.5 -23.5l-8 -43q31 -5 50.5 -23.5t19.5 -47.5q0 -41 -27.5 -60t-68.5 -19l-50 5v48q19 -6 42 -6q51 0 51 34t-57 34l-15 -1l19 81q-101 11 -165 83t-64 178z" />
<glyph unicode="&#xe8;" horiz-adv-x="553" d="M47 251q0 120 71.5 192t176.5 72q100 0 155 -66.5t55 -165.5l-2 -35h-386q2 -93 57.5 -146t137.5 -53q41 0 79 15t56 30l18 16l31 -52q-8 -8 -23.5 -19.5t-64 -31t-98.5 -19.5q-113 0 -188 74t-75 189zM120 304h316q-3 75 -43 114.5t-100 39.5q-66 0 -113.5 -40.5 t-59.5 -113.5zM266 584l-86 119h79l69 -119h-62z" />
<glyph unicode="&#xe9;" horiz-adv-x="553" d="M47 251q0 120 71.5 192t176.5 72q100 0 155 -66.5t55 -165.5l-2 -35h-386q2 -93 57.5 -146t137.5 -53q41 0 79 15t56 30l18 16l31 -52q-8 -8 -23.5 -19.5t-64 -31t-98.5 -19.5q-113 0 -188 74t-75 189zM120 304h316q-3 75 -43 114.5t-100 39.5q-66 0 -113.5 -40.5 t-59.5 -113.5zM263 584l69 119h79l-86 -119h-62z" />
<glyph unicode="&#xea;" horiz-adv-x="553" d="M47 251q0 120 71.5 192t176.5 72q100 0 155 -66.5t55 -165.5l-2 -35h-386q2 -93 57.5 -146t137.5 -53q41 0 79 15t56 30l18 16l31 -52q-8 -8 -23.5 -19.5t-64 -31t-98.5 -19.5q-113 0 -188 74t-75 189zM120 304h316q-3 75 -43 114.5t-100 39.5q-66 0 -113.5 -40.5 t-59.5 -113.5zM175 584l83 119h75l84 -119h-66l-54 81h-2l-54 -81h-66z" />
<glyph unicode="&#xeb;" horiz-adv-x="553" d="M47 251q0 120 71.5 192t176.5 72q100 0 155 -66.5t55 -165.5l-2 -35h-386q2 -93 57.5 -146t137.5 -53q41 0 79 15t56 30l18 16l31 -52q-8 -8 -23.5 -19.5t-64 -31t-98.5 -19.5q-113 0 -188 74t-75 189zM120 304h316q-3 75 -43 114.5t-100 39.5q-66 0 -113.5 -40.5 t-59.5 -113.5zM341 617v86h62v-86h-62zM190 617v86h61v-86h-61z" />
<glyph unicode="&#xec;" horiz-adv-x="232" d="M86 584l-86 119h79l69 -119h-62zM82 0v503h68v-503h-68z" />
<glyph unicode="&#xed;" horiz-adv-x="232" d="M84 584l69 119h79l-86 -119h-62zM82 0v503h68v-503h-68z" />
<glyph unicode="&#xee;" horiz-adv-x="232" d="M82 0v503h68v-503h-68zM-4 584l83 119h75l84 -119h-66l-54 81h-2l-54 -81h-66z" />
<glyph unicode="&#xef;" horiz-adv-x="232" d="M162 617v86h62v-86h-62zM11 617v86h61v-86h-61zM82 0v503h68v-503h-68z" />
<glyph unicode="&#xf0;" horiz-adv-x="588" d="M49 232q0 96 63.5 165.5t175.5 69.5q43 0 79 -13.5t51 -27.5l14 -13h2q-34 97 -124 159l-176 -80l-13 48l135 63q-64 33 -142 51l20 58q115 -29 196 -77l131 59l13 -48l-97 -45q151 -118 151 -328q0 -52 -14.5 -101t-43.5 -91t-78 -67.5t-112 -25.5q-105 0 -168 73 t-63 171zM119 231q0 -74 44 -128t119 -54q86 0 131 64.5t45 146.5q0 65 -45 107t-118 42q-85 0 -130.5 -52.5t-45.5 -125.5z" />
<glyph unicode="&#xf1;" horiz-adv-x="593" d="M82 0v503h67v-75l-2 -40h2q18 46 70 86.5t131 40.5q90 0 129 -49t39 -146v-320h-68v302q0 71 -21.5 110t-87.5 39q-64 0 -115 -39.5t-68 -102.5q-8 -28 -8 -68v-241h-68zM155 587q0 117 92 117q29 0 50.5 -18t39.5 -36t36 -18q40 0 40 69h54q0 -117 -92 -117 q-29 0 -50.5 18t-39.5 35.5t-36 17.5q-39 0 -39 -68h-55z" />
<glyph unicode="&#xf2;" horiz-adv-x="622" d="M45 254q0 111 77.5 186t188.5 75t188.5 -75t77.5 -186q0 -113 -77.5 -189.5t-188.5 -76.5t-188.5 76.5t-77.5 189.5zM115 254q0 -87 57 -146t139 -59t139 59t57 146q0 85 -57 142t-139 57t-139 -57t-57 -142zM281 584l-86 119h79l69 -119h-62z" />
<glyph unicode="&#xf3;" horiz-adv-x="622" d="M45 254q0 111 77.5 186t188.5 75t188.5 -75t77.5 -186q0 -113 -77.5 -189.5t-188.5 -76.5t-188.5 76.5t-77.5 189.5zM115 254q0 -87 57 -146t139 -59t139 59t57 146q0 85 -57 142t-139 57t-139 -57t-57 -142zM279 584l69 119h79l-86 -119h-62z" />
<glyph unicode="&#xf4;" horiz-adv-x="622" d="M45 254q0 111 77.5 186t188.5 75t188.5 -75t77.5 -186q0 -113 -77.5 -189.5t-188.5 -76.5t-188.5 76.5t-77.5 189.5zM115 254q0 -87 57 -146t139 -59t139 59t57 146q0 85 -57 142t-139 57t-139 -57t-57 -142zM190 584l83 119h75l84 -119h-66l-54 81h-2l-54 -81h-66z" />
<glyph unicode="&#xf5;" horiz-adv-x="622" d="M45 254q0 111 77.5 186t188.5 75t188.5 -75t77.5 -186q0 -113 -77.5 -189.5t-188.5 -76.5t-188.5 76.5t-77.5 189.5zM115 254q0 -87 57 -146t139 -59t139 59t57 146q0 85 -57 142t-139 57t-139 -57t-57 -142zM155 587q0 117 92 117q29 0 50.5 -18t39.5 -36t36 -18 q40 0 40 69h54q0 -117 -92 -117q-29 0 -50.5 18t-39.5 35.5t-36 17.5q-39 0 -39 -68h-55z" />
<glyph unicode="&#xf6;" horiz-adv-x="622" d="M45 254q0 111 77.5 186t188.5 75t188.5 -75t77.5 -186q0 -113 -77.5 -189.5t-188.5 -76.5t-188.5 76.5t-77.5 189.5zM115 254q0 -87 57 -146t139 -59t139 59t57 146q0 85 -57 142t-139 57t-139 -57t-57 -142zM356 617v86h62v-86h-62zM205 617v86h61v-86h-61z" />
<glyph unicode="&#xf7;" horiz-adv-x="646" d="M285 433v74h75v-74h-75zM78 255v58h490v-58h-490zM285 61v74h75v-74h-75z" />
<glyph unicode="&#xf8;" horiz-adv-x="624" d="M46 254q0 111 77.5 186t188.5 75q73 0 136 -36l39 54l41 -30l-38 -54q88 -77 88 -195q0 -113 -77.5 -189.5t-188.5 -76.5q-68 0 -129 32l-38 -53l-41 30l37 51q-95 79 -95 206zM116 254q0 -92 63 -152l232 324q-46 27 -99 27q-82 0 -139 -57t-57 -142zM508 254 q0 84 -57 141l-231 -323q41 -23 92 -23q82 0 139 59t57 146z" />
<glyph unicode="&#xf9;" horiz-adv-x="588" d="M75 183v320h68v-302q0 -71 21.5 -110t87.5 -39q83 0 134.5 62t51.5 148v241h68v-503h-66v75l2 40h-2q-19 -46 -70.5 -86.5t-126.5 -40.5q-88 0 -128 48t-40 147zM261 584l-86 119h79l69 -119h-62z" />
<glyph unicode="&#xfa;" horiz-adv-x="588" d="M75 183v320h68v-302q0 -71 21.5 -110t87.5 -39q83 0 134.5 62t51.5 148v241h68v-503h-66v75l2 40h-2q-19 -46 -70.5 -86.5t-126.5 -40.5q-88 0 -128 48t-40 147zM258 584l69 119h79l-86 -119h-62z" />
<glyph unicode="&#xfb;" horiz-adv-x="588" d="M75 183v320h68v-302q0 -71 21.5 -110t87.5 -39q83 0 134.5 62t51.5 148v241h68v-503h-66v75l2 40h-2q-19 -46 -70.5 -86.5t-126.5 -40.5q-88 0 -128 48t-40 147zM170 584l83 119h75l84 -119h-66l-54 81h-2l-54 -81h-66z" />
<glyph unicode="&#xfc;" horiz-adv-x="588" d="M75 183v320h68v-302q0 -71 21.5 -110t87.5 -39q83 0 134.5 62t51.5 148v241h68v-503h-66v75l2 40h-2q-19 -46 -70.5 -86.5t-126.5 -40.5q-88 0 -128 48t-40 147zM336 617v86h62v-86h-62zM185 617v86h61v-86h-61z" />
<glyph unicode="&#xfd;" horiz-adv-x="499" d="M7 -180l26 54q28 -23 60 -23q59 0 95 82l31 71l-210 499h75l148 -367l18 -53h2q7 28 17 53l145 367h74l-248 -608q-20 -49 -58 -77t-87 -28q-23 0 -45 7.5t-32 14.5zM218 584l69 119h79l-86 -119h-62z" />
<glyph unicode="&#xfe;" horiz-adv-x="589" d="M82 -200v903h68v-243l-1 -41h2l6 9q6 9 13 19t21.5 22.5t31.5 22t42.5 16.5t54.5 7q101 0 160.5 -73t59.5 -190q0 -118 -63 -191t-162 -73q-34 0 -64 10t-47.5 24t-30.5 28t-18 24l-5 10h-2q2 -18 2 -44v-240h-68zM148 251q0 -85 43.5 -143.5t117.5 -58.5q69 0 115 55.5 t46 147.5q0 90 -44 145.5t-114 55.5q-71 0 -117.5 -50t-46.5 -152z" />
<glyph unicode="&#xff;" horiz-adv-x="499" d="M7 -180l26 54q28 -23 60 -23q59 0 95 82l31 71l-210 499h75l148 -367l18 -53h2q7 28 17 53l145 367h74l-248 -608q-20 -49 -58 -77t-87 -28q-23 0 -45 7.5t-32 14.5zM296 617v86h62v-86h-62zM145 617v86h61v-86h-61z" />
<glyph unicode="&#x152;" horiz-adv-x="953" d="M55 352q0 153 101.5 257t256.5 104q22 0 63 -5t56 -5h347v-62h-326v-256h266v-62h-266v-261h344v-62h-364q-14 0 -56 -5t-64 -5q-155 0 -256.5 104t-101.5 258zM127 352q0 -128 79.5 -213.5t206.5 -85.5q17 0 34.5 1.5t26.5 3.5l9 2v582q-32 8 -70 8q-127 0 -206.5 -85 t-79.5 -213z" />
<glyph unicode="&#x153;" horiz-adv-x="1013" d="M46 250q0 117 77 191t187 74q75 0 134.5 -36t92.5 -99h2q29 64 85.5 99.5t129.5 35.5q100 0 155.5 -66.5t55.5 -165.5l-2 -35h-386q4 -95 59.5 -147t135.5 -52q41 0 79 15t55 30l18 16l32 -52q-8 -8 -23.5 -19.5t-64 -31t-99.5 -19.5q-78 0 -138 36.5t-91 100.5h-2 q-32 -64 -92 -100.5t-136 -36.5q-110 0 -187 73t-77 189zM580 304h315q-3 75 -42.5 114.5t-99.5 39.5q-66 0 -113.5 -40.5t-59.5 -113.5zM116 250q0 -89 56.5 -145t138.5 -56t138.5 57t56.5 148q0 89 -57 144t-138 55q-82 0 -138.5 -56.5t-56.5 -146.5z" />
<glyph unicode="&#x178;" horiz-adv-x="574" d="M252 0v302l-237 401h79l149 -255l43 -84h2q21 47 43 84l149 255h78l-236 -401v-302h-70zM327 785v86h62v-86h-62zM176 785v86h61v-86h-61z" />
<glyph unicode="&#x2c6;" horiz-adv-x="504" d="M131 752l83 119h75l84 -119h-66l-54 81h-2l-54 -81h-66z" />
<glyph unicode="&#x2dc;" horiz-adv-x="504" d="M96 755q0 117 92 117q29 0 50.5 -18t39.5 -36t36 -18q40 0 40 69h54q0 -117 -92 -117q-29 0 -50.5 18t-39.5 35.5t-36 17.5q-39 0 -39 -68h-55z" />
<glyph unicode="&#x2000;" horiz-adv-x="441" />
<glyph unicode="&#x2001;" horiz-adv-x="883" />
<glyph unicode="&#x2002;" horiz-adv-x="441" />
<glyph unicode="&#x2003;" horiz-adv-x="883" />
<glyph unicode="&#x2004;" horiz-adv-x="294" />
<glyph unicode="&#x2005;" horiz-adv-x="220" />
<glyph unicode="&#x2006;" horiz-adv-x="147" />
<glyph unicode="&#x2007;" horiz-adv-x="147" />
<glyph unicode="&#x2008;" horiz-adv-x="110" />
<glyph unicode="&#x2009;" horiz-adv-x="176" />
<glyph unicode="&#x200a;" horiz-adv-x="49" />
<glyph unicode="&#x2010;" horiz-adv-x="492" d="M104 253v62h284v-62h-284z" />
<glyph unicode="&#x2011;" horiz-adv-x="492" d="M104 253v62h284v-62h-284z" />
<glyph unicode="&#x2012;" horiz-adv-x="492" d="M104 253v62h284v-62h-284z" />
<glyph unicode="&#x2013;" horiz-adv-x="708" d="M104 255v58h500v-58h-500z" />
<glyph unicode="&#x2014;" horiz-adv-x="908" d="M104 255v58h700v-58h-700z" />
<glyph unicode="&#x2018;" horiz-adv-x="215" d="M56 540l57 172h54l-39 -172h-72z" />
<glyph unicode="&#x2019;" horiz-adv-x="209" d="M57 541l39 172h72l-56 -172h-55z" />
<glyph unicode="&#x201a;" horiz-adv-x="238" d="M51 -90l39 172h71l-56 -172h-54z" />
<glyph unicode="&#x201c;" horiz-adv-x="335" d="M176 540l56 172h55l-39 -172h-72zM56 540l57 172h54l-39 -172h-72z" />
<glyph unicode="&#x201d;" horiz-adv-x="329" d="M177 541l39 172h72l-56 -172h-55zM57 541l39 172h72l-56 -172h-55z" />
<glyph unicode="&#x201e;" horiz-adv-x="356" d="M169 -90l39 172h71l-56 -172h-54zM51 -90l39 172h71l-56 -172h-54z" />
<glyph unicode="&#x2022;" horiz-adv-x="401" d="M201 148q-59 0 -101 42t-42 101t42 101t101 42t100.5 -42t41.5 -101t-41.5 -101t-100.5 -42z" />
<glyph unicode="&#x2026;" horiz-adv-x="715" d="M554 0v80h77v-80h-77zM319 0v80h77v-80h-77zM84 0v80h77v-80h-77z" />
<glyph unicode="&#x202f;" horiz-adv-x="176" />
<glyph unicode="&#x2039;" horiz-adv-x="343" d="M214 77l-164 205l164 206h73l-164 -206l164 -205h-73z" />
<glyph unicode="&#x203a;" horiz-adv-x="344" d="M56 77l164 205l-164 206h74l164 -206l-164 -205h-74z" />
<glyph unicode="&#x205f;" horiz-adv-x="220" />
<glyph unicode="&#x20ac;" horiz-adv-x="590" d="M41 266v51h55q-6 35 0 81h-55v51h64q30 118 122 192t214 74q24 0 47.5 -3t35.5 -6l12 -3l-17 -65q-37 11 -79 11q-95 0 -165 -55t-96 -145h306l-10 -51h-307q-6 -38 -1 -81h293l-10 -51h-272q24 -95 95.5 -153.5t168.5 -58.5q22 0 44.5 3.5t33.5 6.5l11 4l16 -65 q-46 -15 -106 -15q-126 0 -218.5 77.5t-119.5 200.5h-62z" />
<glyph unicode="&#x2122;" horiz-adv-x="932" d="M433 265l35 438h52l115 -251l14 -41h2q5 22 14 41l115 251h52l34 -438h-55l-25 297l1 29h-2l-112 -244h-46l-112 244h-2l1 -29l-25 -297h-56zM183 265v386h-156v52h370v-52h-157v-386h-57z" />
<glyph unicode="&#x25fc;" horiz-adv-x="505" d="M0 505h505v-505h-505v505z" />
<hkern u1="&#x28;" u2="&#xef;" k="-12" />
<hkern u1="&#x28;" u2="&#xec;" k="-18" />
<hkern u1="&#x28;" u2="V" k="-11" />
<hkern u1="&#x2c;" u2="v" k="20" />
<hkern u1="&#x2c;" u2="V" k="57" />
<hkern u1="&#x2c;" u2="M" k="7" />
<hkern u1="&#x2c;" u2="&#x39;" k="13" />
<hkern u1="&#x2c;" u2="&#x38;" k="12" />
<hkern u1="&#x2c;" u2="&#x37;" k="17" />
<hkern u1="&#x2c;" u2="&#x36;" k="24" />
<hkern u1="&#x2c;" u2="&#x34;" k="59" />
<hkern u1="&#x2c;" u2="&#x30;" k="22" />
<hkern u1="&#x2e;" u2="v" k="22" />
<hkern u1="&#x2e;" u2="V" k="57" />
<hkern u1="&#x2e;" u2="M" k="6" />
<hkern u1="&#x2e;" u2="&#x39;" k="10" />
<hkern u1="&#x2e;" u2="&#x38;" k="13" />
<hkern u1="&#x2e;" u2="&#x37;" k="14" />
<hkern u1="&#x2e;" u2="&#x36;" k="25" />
<hkern u1="&#x2e;" u2="&#x34;" k="61" />
<hkern u1="&#x2e;" u2="&#x30;" k="24" />
<hkern u1="&#x2f;" u2="&#x37;" k="-8" />
<hkern u1="&#x30;" u2="&#x2e;" k="24" />
<hkern u1="&#x30;" u2="&#x2c;" k="24" />
<hkern u1="&#x31;" u2="&#x34;" k="17" />
<hkern u1="&#x31;" u2="&#x2f;" k="-8" />
<hkern u1="&#x32;" u2="&#x34;" k="21" />
<hkern u1="&#x33;" u2="&#x2e;" k="14" />
<hkern u1="&#x33;" u2="&#x2c;" k="15" />
<hkern u1="&#x34;" u2="&#x2e;" k="27" />
<hkern u1="&#x34;" u2="&#x2c;" k="24" />
<hkern u1="&#x35;" u2="&#x2e;" k="13" />
<hkern u1="&#x35;" u2="&#x2c;" k="14" />
<hkern u1="&#x36;" u2="&#x2e;" k="11" />
<hkern u1="&#x36;" u2="&#x2c;" k="12" />
<hkern u1="&#x37;" u2="&#x34;" k="23" />
<hkern u1="&#x37;" u2="&#x2e;" k="73" />
<hkern u1="&#x37;" u2="&#x2c;" k="73" />
<hkern u1="&#x38;" u2="&#x2e;" k="13" />
<hkern u1="&#x38;" u2="&#x2c;" k="14" />
<hkern u1="&#x39;" u2="&#x2e;" k="36" />
<hkern u1="&#x39;" u2="&#x2c;" k="36" />
<hkern u1="B" u2="V" k="3" />
<hkern u1="B" u2="&#x3b;" k="9" />
<hkern u1="B" u2="&#x3a;" k="8" />
<hkern u1="B" u2="&#x2c;" k="14" />
<hkern u1="F" u2="&#xf0;" k="3" />
<hkern u1="F" u2="&#x7d;" k="-6" />
<hkern u1="F" u2="x" k="33" />
<hkern u1="F" u2="v" k="3" />
<hkern u1="F" u2="p" k="7" />
<hkern u1="F" u2="&#x3b;" k="36" />
<hkern u1="F" u2="&#x3a;" k="35" />
<hkern u1="F" u2="&#x2c;" k="80" />
<hkern u1="L" u2="&#xb7;" k="83" />
<hkern u1="M" u2="V" k="3" />
<hkern u1="M" u2="&#x3a;" k="5" />
<hkern u1="M" u2="&#x2c;" k="5" />
<hkern u1="P" u2="&#xf0;" k="4" />
<hkern u1="P" u2="X" k="6" />
<hkern u1="P" u2="&#x2c;" k="100" />
<hkern u1="Q" u2="V" k="7" />
<hkern u1="T" u2="&#xef;" k="-8" />
<hkern u1="T" u2="&#xec;" k="-18" />
<hkern u1="T" u2="&#xe3;" k="50" />
<hkern u1="V" u2="&#xf0;" k="5" />
<hkern u1="V" u2="&#xec;" k="-12" />
<hkern u1="V" u2="&#x7d;" k="-18" />
<hkern u1="V" u2="x" k="3" />
<hkern u1="V" u2="p" k="15" />
<hkern u1="V" u2="]" k="-18" />
<hkern u1="V" u2="M" k="3" />
<hkern u1="V" u2="&#x3f;" k="-11" />
<hkern u1="V" u2="&#x3b;" k="16" />
<hkern u1="V" u2="&#x3a;" k="15" />
<hkern u1="V" u2="&#x2c;" k="57" />
<hkern u1="V" u2="&#x29;" k="-11" />
<hkern u1="X" u2="&#xf0;" k="5" />
<hkern u1="X" u2="v" k="13" />
<hkern u1="Y" u2="&#xed;" k="6" />
<hkern u1="Y" u2="&#xec;" k="-8" />
<hkern u1="Y" u2="&#xdf;" k="9" />
<hkern u1="[" u2="&#xec;" k="-13" />
<hkern u1="[" u2="V" k="-18" />
<hkern u1="a" u2="Y" k="56" />
<hkern u1="a" u2="W" k="16" />
<hkern u1="a" u2="V" k="27" />
<hkern u1="a" u2="U" k="3" />
<hkern u1="a" u2="T" k="105" />
<hkern u1="c" u2="Y" k="26" />
<hkern u1="c" u2="W" k="8" />
<hkern u1="c" u2="V" k="11" />
<hkern u1="c" u2="T" k="90" />
<hkern u1="e" u2="Y" k="45" />
<hkern u1="e" u2="W" k="14" />
<hkern u1="e" u2="V" k="22" />
<hkern u1="e" u2="T" k="92" />
<hkern u1="f" u2="&#xec;" k="-11" />
<hkern u1="f" u2="&#x7d;" k="-17" />
<hkern u1="f" u2="]" k="-18" />
<hkern u1="f" u2="Y" k="-7" />
<hkern u1="f" u2="V" k="-11" />
<hkern u1="f" u2="T" k="-16" />
<hkern u1="f" u2="J" k="17" />
<hkern u1="f" u2="A" k="6" />
<hkern u1="f" u2="&#x3f;" k="-10" />
<hkern u1="f" u2="&#x2c;" k="6" />
<hkern u1="f" u2="&#x29;" k="-13" />
<hkern u1="g" u2="Y" k="34" />
<hkern u1="g" u2="W" k="13" />
<hkern u1="g" u2="V" k="15" />
<hkern u1="g" u2="T" k="106" />
<hkern u1="k" u2="Y" k="9" />
<hkern u1="k" u2="W" k="3" />
<hkern u1="k" u2="V" k="4" />
<hkern u1="k" u2="U" k="3" />
<hkern u1="k" u2="T" k="84" />
<hkern u1="k" u2="J" k="3" />
<hkern u1="l" u2="&#xb7;" k="61" />
<hkern u1="l" u2="Y" k="4" />
<hkern u1="l" u2="W" k="4" />
<hkern u1="l" u2="U" k="5" />
<hkern u1="o" u2="Z" k="5" />
<hkern u1="o" u2="Y" k="59" />
<hkern u1="o" u2="X" k="7" />
<hkern u1="o" u2="W" k="18" />
<hkern u1="o" u2="V" k="30" />
<hkern u1="o" u2="T" k="96" />
<hkern u1="q" u2="Y" k="34" />
<hkern u1="q" u2="W" k="13" />
<hkern u1="q" u2="V" k="15" />
<hkern u1="q" u2="T" k="106" />
<hkern u1="r" u2="Z" k="49" />
<hkern u1="r" u2="Y" k="3" />
<hkern u1="r" u2="X" k="16" />
<hkern u1="r" u2="T" k="83" />
<hkern u1="r" u2="J" k="41" />
<hkern u1="r" u2="A" k="20" />
<hkern u1="s" u2="Y" k="32" />
<hkern u1="s" u2="W" k="8" />
<hkern u1="s" u2="V" k="11" />
<hkern u1="s" u2="T" k="90" />
<hkern u1="t" u2="Y" k="7" />
<hkern u1="t" u2="T" k="37" />
<hkern u1="u" u2="Y" k="34" />
<hkern u1="u" u2="W" k="13" />
<hkern u1="u" u2="V" k="15" />
<hkern u1="u" u2="T" k="106" />
<hkern u1="v" u2="&#xf0;" k="3" />
<hkern u1="v" u2="Z" k="38" />
<hkern u1="v" u2="Y" k="3" />
<hkern u1="v" u2="X" k="13" />
<hkern u1="v" u2="T" k="83" />
<hkern u1="v" u2="J" k="5" />
<hkern u1="v" u2="A" k="9" />
<hkern u1="v" u2="&#x2c;" k="23" />
<hkern u1="w" u2="Z" k="33" />
<hkern u1="w" u2="Y" k="3" />
<hkern u1="w" u2="X" k="11" />
<hkern u1="w" u2="T" k="85" />
<hkern u1="w" u2="A" k="5" />
<hkern u1="x" u2="&#xf0;" k="7" />
<hkern u1="x" u2="Y" k="9" />
<hkern u1="x" u2="V" k="3" />
<hkern u1="x" u2="T" k="87" />
<hkern u1="y" u2="Z" k="39" />
<hkern u1="y" u2="X" k="12" />
<hkern u1="y" u2="T" k="82" />
<hkern u1="y" u2="J" k="5" />
<hkern u1="y" u2="A" k="9" />
<hkern u1="z" u2="Y" k="13" />
<hkern u1="z" u2="W" k="4" />
<hkern u1="z" u2="V" k="5" />
<hkern u1="z" u2="T" k="90" />
<hkern u1="&#x7b;" u2="&#xef;" k="-13" />
<hkern u1="&#x7b;" u2="&#xec;" k="-22" />
<hkern u1="&#x7b;" u2="V" k="-18" />
<hkern u1="&#xb7;" u2="l" k="61" />
<hkern u1="&#xbf;" u2="j" k="-43" />
<hkern u1="&#xdd;" u2="&#xed;" k="6" />
<hkern u1="&#xdd;" u2="&#xec;" k="-8" />
<hkern u1="&#xdd;" u2="&#xdf;" k="9" />
<hkern u1="&#xde;" u2="X" k="24" />
<hkern u1="&#xde;" u2="V" k="3" />
<hkern u1="&#xde;" u2="&#x3b;" k="5" />
<hkern u1="&#xde;" u2="&#x2c;" k="80" />
<hkern u1="&#xdf;" u2="v" k="5" />
<hkern u1="&#xed;" u2="&#x7d;" k="-22" />
<hkern u1="&#xed;" u2="]" k="-13" />
<hkern u1="&#xed;" u2="&#x3f;" k="-9" />
<hkern u1="&#xed;" u2="&#x29;" k="-18" />
<hkern u1="&#xef;" u2="&#x7d;" k="-16" />
<hkern u1="&#xef;" u2="]" k="-7" />
<hkern u1="&#xef;" u2="&#x3f;" k="-9" />
<hkern u1="&#xef;" u2="&#x29;" k="-14" />
<hkern u1="&#xf0;" u2="x" k="5" />
<hkern u1="&#xf0;" u2="&#x2c;" k="5" />
<hkern u1="&#x178;" u2="&#xed;" k="6" />
<hkern u1="&#x178;" u2="&#xec;" k="-8" />
<hkern u1="&#x178;" u2="&#xdf;" k="9" />
<hkern g1="quotedbl,quotesingle" 	g2="A,Agrave,Aacute,Acircumflex,Atilde,Adieresis,Aring,AE" 	k="41" />
<hkern g1="quotedbl,quotesingle" 	g2="B,D,E,F,H,I,K,L,N,P,R,Egrave,Eacute,Ecircumflex,Edieresis,Igrave,Iacute,Icircumflex,Idieresis,Eth,Ntilde,Thorn" 	k="8" />
<hkern g1="quotedbl,quotesingle" 	g2="J" 	k="37" />
<hkern g1="quotedbl,quotesingle" 	g2="M" 	k="12" />
<hkern g1="quotedbl,quotesingle" 	g2="T" 	k="-10" />
<hkern g1="quotedbl,quotesingle" 	g2="U,Ugrave,Uacute,Ucircumflex,Udieresis" 	k="6" />
<hkern g1="quotedbl,quotesingle" 	g2="a,agrave,aacute,acircumflex,atilde,adieresis,aring,ae" 	k="6" />
<hkern g1="parenleft" 	g2="T" 	k="-16" />
<hkern g1="parenleft" 	g2="Y,Yacute,Ydieresis" 	k="-11" />
<hkern g1="comma" 	g2="B,D,E,F,H,I,K,L,N,P,R,Egrave,Eacute,Ecircumflex,Edieresis,Igrave,Iacute,Icircumflex,Idieresis,Eth,Ntilde,Thorn" 	k="13" />
<hkern g1="comma" 	g2="J" 	k="5" />
<hkern g1="comma" 	g2="T" 	k="61" />
<hkern g1="comma" 	g2="U,Ugrave,Uacute,Ucircumflex,Udieresis" 	k="30" />
<hkern g1="comma" 	g2="Y,Yacute,Ydieresis" 	k="62" />
<hkern g1="comma" 	g2="C,G,O,Q,Ccedilla,Ograve,Oacute,Ocircumflex,Otilde,Odieresis,Oslash,OE" 	k="36" />
<hkern g1="comma" 	g2="W" 	k="45" />
<hkern g1="comma" 	g2="t" 	k="5" />
<hkern g1="comma" 	g2="w" 	k="14" />
<hkern g1="comma" 	g2="y,yacute,ydieresis" 	k="24" />
<hkern g1="hyphen,endash,emdash" 	g2="A,Agrave,Aacute,Acircumflex,Atilde,Adieresis,Aring,AE" 	k="25" />
<hkern g1="hyphen,endash,emdash" 	g2="B,D,E,F,H,I,K,L,N,P,R,Egrave,Eacute,Ecircumflex,Edieresis,Igrave,Iacute,Icircumflex,Idieresis,Eth,Ntilde,Thorn" 	k="21" />
<hkern g1="hyphen,endash,emdash" 	g2="J" 	k="9" />
<hkern g1="hyphen,endash,emdash" 	g2="M" 	k="19" />
<hkern g1="hyphen,endash,emdash" 	g2="T" 	k="66" />
<hkern g1="hyphen,endash,emdash" 	g2="U,Ugrave,Uacute,Ucircumflex,Udieresis" 	k="18" />
<hkern g1="hyphen,endash,emdash" 	g2="a,agrave,aacute,acircumflex,atilde,adieresis,aring,ae" 	k="11" />
<hkern g1="hyphen,endash,emdash" 	g2="Y,Yacute,Ydieresis" 	k="67" />
<hkern g1="hyphen,endash,emdash" 	g2="C,G,O,Q,Ccedilla,Ograve,Oacute,Ocircumflex,Otilde,Odieresis,Oslash,OE" 	k="8" />
<hkern g1="hyphen,endash,emdash" 	g2="W" 	k="36" />
<hkern g1="hyphen,endash,emdash" 	g2="S" 	k="58" />
<hkern g1="hyphen,endash,emdash" 	g2="V" 	k="41" />
<hkern g1="hyphen,endash,emdash" 	g2="X" 	k="46" />
<hkern g1="hyphen,endash,emdash" 	g2="Z" 	k="47" />
<hkern g1="hyphen,endash,emdash" 	g2="x" 	k="11" />
<hkern g1="hyphen,endash,emdash" 	g2="z" 	k="25" />
<hkern g1="period" 	g2="B,D,E,F,H,I,K,L,N,P,R,Egrave,Eacute,Ecircumflex,Edieresis,Igrave,Iacute,Icircumflex,Idieresis,Eth,Ntilde,Thorn" 	k="13" />
<hkern g1="period" 	g2="J" 	k="5" />
<hkern g1="period" 	g2="T" 	k="60" />
<hkern g1="period" 	g2="U,Ugrave,Uacute,Ucircumflex,Udieresis" 	k="30" />
<hkern g1="period" 	g2="Y,Yacute,Ydieresis" 	k="62" />
<hkern g1="period" 	g2="C,G,O,Q,Ccedilla,Ograve,Oacute,Ocircumflex,Otilde,Odieresis,Oslash,OE" 	k="36" />
<hkern g1="period" 	g2="W" 	k="45" />
<hkern g1="period" 	g2="t" 	k="6" />
<hkern g1="period" 	g2="w" 	k="15" />
<hkern g1="period" 	g2="y,yacute,ydieresis" 	k="26" />
<hkern g1="A,Agrave,Aacute,Acircumflex,Atilde,Adieresis,Aring" 	g2="T" 	k="45" />
<hkern g1="A,Agrave,Aacute,Acircumflex,Atilde,Adieresis,Aring" 	g2="U,Ugrave,Uacute,Ucircumflex,Udieresis" 	k="7" />
<hkern g1="A,Agrave,Aacute,Acircumflex,Atilde,Adieresis,Aring" 	g2="Y,Yacute,Ydieresis" 	k="47" />
<hkern g1="A,Agrave,Aacute,Acircumflex,Atilde,Adieresis,Aring" 	g2="C,G,O,Q,Ccedilla,Ograve,Oacute,Ocircumflex,Otilde,Odieresis,Oslash,OE" 	k="5" />
<hkern g1="A,Agrave,Aacute,Acircumflex,Atilde,Adieresis,Aring" 	g2="W" 	k="22" />
<hkern g1="A,Agrave,Aacute,Acircumflex,Atilde,Adieresis,Aring" 	g2="t" 	k="3" />
<hkern g1="A,Agrave,Aacute,Acircumflex,Atilde,Adieresis,Aring" 	g2="w" 	k="5" />
<hkern g1="A,Agrave,Aacute,Acircumflex,Atilde,Adieresis,Aring" 	g2="y,yacute,ydieresis" 	k="9" />
<hkern g1="A,Agrave,Aacute,Acircumflex,Atilde,Adieresis,Aring" 	g2="V" 	k="31" />
<hkern g1="A,Agrave,Aacute,Acircumflex,Atilde,Adieresis,Aring" 	g2="quotedbl,quotesingle" 	k="41" />
<hkern g1="A,Agrave,Aacute,Acircumflex,Atilde,Adieresis,Aring" 	g2="hyphen,endash,emdash" 	k="25" />
<hkern g1="A,Agrave,Aacute,Acircumflex,Atilde,Adieresis,Aring" 	g2="v" 	k="9" />
<hkern g1="A,Agrave,Aacute,Acircumflex,Atilde,Adieresis,Aring" 	g2="quoteright,quotedblright" 	k="36" />
<hkern g1="B" 	g2="Y,Yacute,Ydieresis" 	k="9" />
<hkern g1="B" 	g2="W" 	k="4" />
<hkern g1="B" 	g2="quotedbl,quotesingle" 	k="7" />
<hkern g1="B" 	g2="hyphen,endash,emdash" 	k="13" />
<hkern g1="B" 	g2="quoteright,quotedblright" 	k="5" />
<hkern g1="B" 	g2="period,ellipsis" 	k="13" />
<hkern g1="C,Ccedilla" 	g2="C,G,O,Q,Ccedilla,Ograve,Oacute,Ocircumflex,Otilde,Odieresis,Oslash,OE" 	k="6" />
<hkern g1="C,Ccedilla" 	g2="t" 	k="3" />
<hkern g1="C,Ccedilla" 	g2="w" 	k="14" />
<hkern g1="C,Ccedilla" 	g2="y,yacute,ydieresis" 	k="23" />
<hkern g1="C,Ccedilla" 	g2="hyphen,endash,emdash" 	k="79" />
<hkern g1="C,Ccedilla" 	g2="v" 	k="19" />
<hkern g1="C,Ccedilla" 	g2="period,ellipsis" 	k="5" />
<hkern g1="C,Ccedilla" 	g2="comma" 	k="5" />
<hkern g1="C,Ccedilla" 	g2="colon" 	k="8" />
<hkern g1="C,Ccedilla" 	g2="semicolon" 	k="8" />
<hkern g1="C,Ccedilla" 	g2="f,uniFB01,uniFB02,uniFB03,uniFB04" 	k="3" />
<hkern g1="D,Eth" 	g2="A,Agrave,Aacute,Acircumflex,Atilde,Adieresis,Aring,AE" 	k="4" />
<hkern g1="D,Eth" 	g2="T" 	k="14" />
<hkern g1="D,Eth" 	g2="Y,Yacute,Ydieresis" 	k="18" />
<hkern g1="D,Eth" 	g2="W" 	k="4" />
<hkern g1="D,Eth" 	g2="V" 	k="4" />
<hkern g1="D,Eth" 	g2="X" 	k="12" />
<hkern g1="D,Eth" 	g2="Z" 	k="12" />
<hkern g1="D,Eth" 	g2="hyphen,endash,emdash" 	k="9" />
<hkern g1="D,Eth" 	g2="period,ellipsis" 	k="35" />
<hkern g1="D,Eth" 	g2="comma" 	k="36" />
<hkern g1="D,Eth" 	g2="colon" 	k="6" />
<hkern g1="D,Eth" 	g2="semicolon" 	k="6" />
<hkern g1="E,AE,Egrave,Eacute,Ecircumflex,Edieresis,OE" 	g2="C,G,O,Q,Ccedilla,Ograve,Oacute,Ocircumflex,Otilde,Odieresis,Oslash,OE" 	k="6" />
<hkern g1="E,AE,Egrave,Eacute,Ecircumflex,Edieresis,OE" 	g2="t" 	k="5" />
<hkern g1="E,AE,Egrave,Eacute,Ecircumflex,Edieresis,OE" 	g2="w" 	k="10" />
<hkern g1="E,AE,Egrave,Eacute,Ecircumflex,Edieresis,OE" 	g2="y,yacute,ydieresis" 	k="14" />
<hkern g1="E,AE,Egrave,Eacute,Ecircumflex,Edieresis,OE" 	g2="hyphen,endash,emdash" 	k="38" />
<hkern g1="E,AE,Egrave,Eacute,Ecircumflex,Edieresis,OE" 	g2="v" 	k="13" />
<hkern g1="E,AE,Egrave,Eacute,Ecircumflex,Edieresis,OE" 	g2="colon" 	k="5" />
<hkern g1="E,AE,Egrave,Eacute,Ecircumflex,Edieresis,OE" 	g2="f,uniFB01,uniFB02,uniFB03,uniFB04" 	k="3" />
<hkern g1="E,AE,Egrave,Eacute,Ecircumflex,Edieresis,OE" 	g2="g" 	k="3" />
<hkern g1="E,AE,Egrave,Eacute,Ecircumflex,Edieresis,OE" 	g2="c,e,o,ccedilla,egrave,eacute,ecircumflex,edieresis,ograve,oacute,ocircumflex,otilde,odieresis,oslash,oe" 	k="3" />
<hkern g1="E,AE,Egrave,Eacute,Ecircumflex,Edieresis,OE" 	g2="eth" 	k="3" />
<hkern g1="F" 	g2="A,Agrave,Aacute,Acircumflex,Atilde,Adieresis,Aring,AE" 	k="29" />
<hkern g1="F" 	g2="J" 	k="44" />
<hkern g1="F" 	g2="a,agrave,aacute,acircumflex,atilde,adieresis,aring,ae" 	k="15" />
<hkern g1="F" 	g2="t" 	k="3" />
<hkern g1="F" 	g2="z" 	k="65" />
<hkern g1="F" 	g2="hyphen,endash,emdash" 	k="19" />
<hkern g1="F" 	g2="period,ellipsis" 	k="81" />
<hkern g1="F" 	g2="f,uniFB01,uniFB02,uniFB03,uniFB04" 	k="5" />
<hkern g1="F" 	g2="m,n,r,ntilde" 	k="7" />
<hkern g1="F" 	g2="s" 	k="5" />
<hkern g1="F" 	g2="u,ugrave,uacute,ucircumflex,udieresis" 	k="5" />
<hkern g1="G" 	g2="quotedbl,quotesingle" 	k="7" />
<hkern g1="G" 	g2="hyphen,endash,emdash" 	k="11" />
<hkern g1="G" 	g2="quoteright,quotedblright" 	k="8" />
<hkern g1="G" 	g2="colon" 	k="6" />
<hkern g1="G" 	g2="semicolon" 	k="5" />
<hkern g1="H,I,N,Igrave,Iacute,Icircumflex,Idieresis,Ntilde" 	g2="quotedbl,quotesingle" 	k="8" />
<hkern g1="H,I,N,Igrave,Iacute,Icircumflex,Idieresis,Ntilde" 	g2="hyphen,endash,emdash" 	k="21" />
<hkern g1="H,I,N,Igrave,Iacute,Icircumflex,Idieresis,Ntilde" 	g2="quoteright,quotedblright" 	k="6" />
<hkern g1="H,I,N,Igrave,Iacute,Icircumflex,Idieresis,Ntilde" 	g2="period,ellipsis" 	k="13" />
<hkern g1="H,I,N,Igrave,Iacute,Icircumflex,Idieresis,Ntilde" 	g2="comma" 	k="11" />
<hkern g1="H,I,N,Igrave,Iacute,Icircumflex,Idieresis,Ntilde" 	g2="colon" 	k="8" />
<hkern g1="H,I,N,Igrave,Iacute,Icircumflex,Idieresis,Ntilde" 	g2="semicolon" 	k="8" />
<hkern g1="J" 	g2="A,Agrave,Aacute,Acircumflex,Atilde,Adieresis,Aring,AE" 	k="3" />
<hkern g1="J" 	g2="quotedbl,quotesingle" 	k="6" />
<hkern g1="J" 	g2="hyphen,endash,emdash" 	k="18" />
<hkern g1="J" 	g2="period,ellipsis" 	k="22" />
<hkern g1="J" 	g2="comma" 	k="22" />
<hkern g1="J" 	g2="colon" 	k="9" />
<hkern g1="J" 	g2="semicolon" 	k="10" />
<hkern g1="K" 	g2="C,G,O,Q,Ccedilla,Ograve,Oacute,Ocircumflex,Otilde,Odieresis,Oslash,OE" 	k="13" />
<hkern g1="K" 	g2="t" 	k="6" />
<hkern g1="K" 	g2="w" 	k="12" />
<hkern g1="K" 	g2="y,yacute,ydieresis" 	k="13" />
<hkern g1="K" 	g2="hyphen,endash,emdash" 	k="47" />
<hkern g1="K" 	g2="v" 	k="14" />
<hkern g1="K" 	g2="f,uniFB01,uniFB02,uniFB03,uniFB04" 	k="4" />
<hkern g1="K" 	g2="g" 	k="8" />
<hkern g1="K" 	g2="c,e,o,ccedilla,egrave,eacute,ecircumflex,edieresis,ograve,oacute,ocircumflex,otilde,odieresis,oslash,oe" 	k="8" />
<hkern g1="K" 	g2="eth" 	k="6" />
<hkern g1="K" 	g2="u,ugrave,uacute,ucircumflex,udieresis" 	k="5" />
<hkern g1="K" 	g2="d,q" 	k="5" />
<hkern g1="L" 	g2="T" 	k="69" />
<hkern g1="L" 	g2="U,Ugrave,Uacute,Ucircumflex,Udieresis" 	k="16" />
<hkern g1="L" 	g2="Y,Yacute,Ydieresis" 	k="49" />
<hkern g1="L" 	g2="C,G,O,Q,Ccedilla,Ograve,Oacute,Ocircumflex,Otilde,Odieresis,Oslash,OE" 	k="29" />
<hkern g1="L" 	g2="W" 	k="41" />
<hkern g1="L" 	g2="t" 	k="4" />
<hkern g1="L" 	g2="w" 	k="19" />
<hkern g1="L" 	g2="y,yacute,ydieresis" 	k="35" />
<hkern g1="L" 	g2="V" 	k="58" />
<hkern g1="L" 	g2="quotedbl,quotesingle" 	k="78" />
<hkern g1="L" 	g2="hyphen,endash,emdash" 	k="87" />
<hkern g1="L" 	g2="v" 	k="31" />
<hkern g1="L" 	g2="quoteright,quotedblright" 	k="76" />
<hkern g1="M" 	g2="Y,Yacute,Ydieresis" 	k="9" />
<hkern g1="M" 	g2="W" 	k="6" />
<hkern g1="M" 	g2="quotedbl,quotesingle" 	k="12" />
<hkern g1="M" 	g2="hyphen,endash,emdash" 	k="19" />
<hkern g1="M" 	g2="quoteright,quotedblright" 	k="9" />
<hkern g1="M" 	g2="period,ellipsis" 	k="6" />
<hkern g1="O,Ograve,Oacute,Ocircumflex,Otilde,Odieresis,Oslash" 	g2="A,Agrave,Aacute,Acircumflex,Atilde,Adieresis,Aring,AE" 	k="5" />
<hkern g1="O,Ograve,Oacute,Ocircumflex,Otilde,Odieresis,Oslash" 	g2="T" 	k="15" />
<hkern g1="O,Ograve,Oacute,Ocircumflex,Otilde,Odieresis,Oslash" 	g2="Y,Yacute,Ydieresis" 	k="18" />
<hkern g1="O,Ograve,Oacute,Ocircumflex,Otilde,Odieresis,Oslash" 	g2="W" 	k="3" />
<hkern g1="O,Ograve,Oacute,Ocircumflex,Otilde,Odieresis,Oslash" 	g2="V" 	k="4" />
<hkern g1="O,Ograve,Oacute,Ocircumflex,Otilde,Odieresis,Oslash" 	g2="X" 	k="13" />
<hkern g1="O,Ograve,Oacute,Ocircumflex,Otilde,Odieresis,Oslash" 	g2="Z" 	k="13" />
<hkern g1="O,Ograve,Oacute,Ocircumflex,Otilde,Odieresis,Oslash" 	g2="hyphen,endash,emdash" 	k="8" />
<hkern g1="O,Ograve,Oacute,Ocircumflex,Otilde,Odieresis,Oslash" 	g2="period,ellipsis" 	k="36" />
<hkern g1="O,Ograve,Oacute,Ocircumflex,Otilde,Odieresis,Oslash" 	g2="comma" 	k="37" />
<hkern g1="O,Ograve,Oacute,Ocircumflex,Otilde,Odieresis,Oslash" 	g2="colon" 	k="6" />
<hkern g1="O,Ograve,Oacute,Ocircumflex,Otilde,Odieresis,Oslash" 	g2="semicolon" 	k="6" />
<hkern g1="P" 	g2="A,Agrave,Aacute,Acircumflex,Atilde,Adieresis,Aring,AE" 	k="28" />
<hkern g1="P" 	g2="J" 	k="46" />
<hkern g1="P" 	g2="Z" 	k="4" />
<hkern g1="P" 	g2="hyphen,endash,emdash" 	k="27" />
<hkern g1="P" 	g2="period,ellipsis" 	k="101" />
<hkern g1="Q" 	g2="T" 	k="20" />
<hkern g1="Q" 	g2="Y,Yacute,Ydieresis" 	k="23" />
<hkern g1="Q" 	g2="W" 	k="5" />
<hkern g1="Q" 	g2="quotedbl,quotesingle" 	k="6" />
<hkern g1="Q" 	g2="hyphen,endash,emdash" 	k="11" />
<hkern g1="Q" 	g2="period,ellipsis" 	k="5" />
<hkern g1="R" 	g2="Y,Yacute,Ydieresis" 	k="4" />
<hkern g1="R" 	g2="hyphen,endash,emdash" 	k="38" />
<hkern g1="S" 	g2="t" 	k="3" />
<hkern g1="S" 	g2="w" 	k="4" />
<hkern g1="S" 	g2="y,yacute,ydieresis" 	k="9" />
<hkern g1="S" 	g2="hyphen,endash,emdash" 	k="13" />
<hkern g1="S" 	g2="v" 	k="8" />
<hkern g1="S" 	g2="period,ellipsis" 	k="8" />
<hkern g1="S" 	g2="comma" 	k="8" />
<hkern g1="S" 	g2="colon" 	k="10" />
<hkern g1="S" 	g2="semicolon" 	k="10" />
<hkern g1="S" 	g2="f,uniFB01,uniFB02,uniFB03,uniFB04" 	k="3" />
<hkern g1="T" 	g2="A,Agrave,Aacute,Acircumflex,Atilde,Adieresis,Aring,AE" 	k="45" />
<hkern g1="T" 	g2="J" 	k="34" />
<hkern g1="T" 	g2="T" 	k="-22" />
<hkern g1="T" 	g2="a,agrave,aacute,acircumflex,atilde,adieresis,aring,ae" 	k="91" />
<hkern g1="T" 	g2="Y,Yacute,Ydieresis" 	k="-14" />
<hkern g1="T" 	g2="C,G,O,Q,Ccedilla,Ograve,Oacute,Ocircumflex,Otilde,Odieresis,Oslash,OE" 	k="14" />
<hkern g1="T" 	g2="w" 	k="84" />
<hkern g1="T" 	g2="y,yacute,ydieresis" 	k="79" />
<hkern g1="T" 	g2="V" 	k="-17" />
<hkern g1="T" 	g2="x" 	k="86" />
<hkern g1="T" 	g2="z" 	k="85" />
<hkern g1="T" 	g2="quotedbl,quotesingle" 	k="-10" />
<hkern g1="T" 	g2="hyphen,endash,emdash" 	k="66" />
<hkern g1="T" 	g2="v" 	k="81" />
<hkern g1="T" 	g2="period,ellipsis" 	k="60" />
<hkern g1="T" 	g2="comma" 	k="59" />
<hkern g1="T" 	g2="colon" 	k="56" />
<hkern g1="T" 	g2="semicolon" 	k="56" />
<hkern g1="T" 	g2="f,uniFB01,uniFB02,uniFB03,uniFB04" 	k="7" />
<hkern g1="T" 	g2="g" 	k="96" />
<hkern g1="T" 	g2="c,e,o,ccedilla,egrave,eacute,ecircumflex,edieresis,ograve,oacute,ocircumflex,otilde,odieresis,oslash,oe" 	k="95" />
<hkern g1="T" 	g2="eth" 	k="5" />
<hkern g1="T" 	g2="m,n,r,ntilde" 	k="105" />
<hkern g1="T" 	g2="s" 	k="92" />
<hkern g1="T" 	g2="u,ugrave,uacute,ucircumflex,udieresis" 	k="103" />
<hkern g1="T" 	g2="d,q" 	k="95" />
<hkern g1="T" 	g2="parenright" 	k="-16" />
<hkern g1="T" 	g2="question" 	k="-16" />
<hkern g1="T" 	g2="bracketright" 	k="-21" />
<hkern g1="T" 	g2="p" 	k="105" />
<hkern g1="T" 	g2="braceright" 	k="-22" />
<hkern g1="U,Ugrave,Uacute,Ucircumflex,Udieresis" 	g2="A,Agrave,Aacute,Acircumflex,Atilde,Adieresis,Aring,AE" 	k="7" />
<hkern g1="U,Ugrave,Uacute,Ucircumflex,Udieresis" 	g2="quotedbl,quotesingle" 	k="6" />
<hkern g1="U,Ugrave,Uacute,Ucircumflex,Udieresis" 	g2="hyphen,endash,emdash" 	k="18" />
<hkern g1="U,Ugrave,Uacute,Ucircumflex,Udieresis" 	g2="period,ellipsis" 	k="30" />
<hkern g1="U,Ugrave,Uacute,Ucircumflex,Udieresis" 	g2="comma" 	k="31" />
<hkern g1="U,Ugrave,Uacute,Ucircumflex,Udieresis" 	g2="colon" 	k="10" />
<hkern g1="U,Ugrave,Uacute,Ucircumflex,Udieresis" 	g2="semicolon" 	k="11" />
<hkern g1="V" 	g2="A,Agrave,Aacute,Acircumflex,Atilde,Adieresis,Aring,AE" 	k="31" />
<hkern g1="V" 	g2="J" 	k="24" />
<hkern g1="V" 	g2="T" 	k="-17" />
<hkern g1="V" 	g2="a,agrave,aacute,acircumflex,atilde,adieresis,aring,ae" 	k="22" />
<hkern g1="V" 	g2="Y,Yacute,Ydieresis" 	k="-8" />
<hkern g1="V" 	g2="C,G,O,Q,Ccedilla,Ograve,Oacute,Ocircumflex,Otilde,Odieresis,Oslash,OE" 	k="4" />
<hkern g1="V" 	g2="z" 	k="3" />
<hkern g1="V" 	g2="hyphen,endash,emdash" 	k="41" />
<hkern g1="V" 	g2="period,ellipsis" 	k="57" />
<hkern g1="V" 	g2="g" 	k="26" />
<hkern g1="V" 	g2="c,e,o,ccedilla,egrave,eacute,ecircumflex,edieresis,ograve,oacute,ocircumflex,otilde,odieresis,oslash,oe" 	k="30" />
<hkern g1="V" 	g2="m,n,r,ntilde" 	k="15" />
<hkern g1="V" 	g2="s" 	k="18" />
<hkern g1="V" 	g2="u,ugrave,uacute,ucircumflex,udieresis" 	k="12" />
<hkern g1="V" 	g2="d,q" 	k="26" />
<hkern g1="W" 	g2="A,Agrave,Aacute,Acircumflex,Atilde,Adieresis,Aring,AE" 	k="23" />
<hkern g1="W" 	g2="J" 	k="18" />
<hkern g1="W" 	g2="M" 	k="6" />
<hkern g1="W" 	g2="a,agrave,aacute,acircumflex,atilde,adieresis,aring,ae" 	k="16" />
<hkern g1="W" 	g2="C,G,O,Q,Ccedilla,Ograve,Oacute,Ocircumflex,Otilde,Odieresis,Oslash,OE" 	k="3" />
<hkern g1="W" 	g2="hyphen,endash,emdash" 	k="36" />
<hkern g1="W" 	g2="period,ellipsis" 	k="46" />
<hkern g1="W" 	g2="comma" 	k="45" />
<hkern g1="W" 	g2="colon" 	k="14" />
<hkern g1="W" 	g2="semicolon" 	k="15" />
<hkern g1="W" 	g2="g" 	k="17" />
<hkern g1="W" 	g2="c,e,o,ccedilla,egrave,eacute,ecircumflex,edieresis,ograve,oacute,ocircumflex,otilde,odieresis,oslash,oe" 	k="19" />
<hkern g1="W" 	g2="eth" 	k="7" />
<hkern g1="W" 	g2="m,n,r,ntilde" 	k="13" />
<hkern g1="W" 	g2="s" 	k="13" />
<hkern g1="W" 	g2="u,ugrave,uacute,ucircumflex,udieresis" 	k="10" />
<hkern g1="W" 	g2="d,q" 	k="17" />
<hkern g1="W" 	g2="p" 	k="13" />
<hkern g1="W" 	g2="braceright" 	k="-8" />
<hkern g1="X" 	g2="U,Ugrave,Uacute,Ucircumflex,Udieresis" 	k="3" />
<hkern g1="X" 	g2="C,G,O,Q,Ccedilla,Ograve,Oacute,Ocircumflex,Otilde,Odieresis,Oslash,OE" 	k="13" />
<hkern g1="X" 	g2="t" 	k="6" />
<hkern g1="X" 	g2="w" 	k="12" />
<hkern g1="X" 	g2="y,yacute,ydieresis" 	k="13" />
<hkern g1="X" 	g2="hyphen,endash,emdash" 	k="47" />
<hkern g1="X" 	g2="f,uniFB01,uniFB02,uniFB03,uniFB04" 	k="4" />
<hkern g1="X" 	g2="g" 	k="8" />
<hkern g1="X" 	g2="c,e,o,ccedilla,egrave,eacute,ecircumflex,edieresis,ograve,oacute,ocircumflex,otilde,odieresis,oslash,oe" 	k="7" />
<hkern g1="X" 	g2="u,ugrave,uacute,ucircumflex,udieresis" 	k="5" />
<hkern g1="X" 	g2="d,q" 	k="5" />
<hkern g1="Y,Yacute,Ydieresis" 	g2="A,Agrave,Aacute,Acircumflex,Atilde,Adieresis,Aring,AE" 	k="47" />
<hkern g1="Y,Yacute,Ydieresis" 	g2="J" 	k="29" />
<hkern g1="Y,Yacute,Ydieresis" 	g2="M" 	k="10" />
<hkern g1="Y,Yacute,Ydieresis" 	g2="T" 	k="-13" />
<hkern g1="Y,Yacute,Ydieresis" 	g2="a,agrave,aacute,acircumflex,atilde,adieresis,aring,ae" 	k="40" />
<hkern g1="Y,Yacute,Ydieresis" 	g2="Y,Yacute,Ydieresis" 	k="-4" />
<hkern g1="Y,Yacute,Ydieresis" 	g2="C,G,O,Q,Ccedilla,Ograve,Oacute,Ocircumflex,Otilde,Odieresis,Oslash,OE" 	k="18" />
<hkern g1="Y,Yacute,Ydieresis" 	g2="w" 	k="3" />
<hkern g1="Y,Yacute,Ydieresis" 	g2="V" 	k="-7" />
<hkern g1="Y,Yacute,Ydieresis" 	g2="x" 	k="9" />
<hkern g1="Y,Yacute,Ydieresis" 	g2="z" 	k="8" />
<hkern g1="Y,Yacute,Ydieresis" 	g2="hyphen,endash,emdash" 	k="67" />
<hkern g1="Y,Yacute,Ydieresis" 	g2="v" 	k="3" />
<hkern g1="Y,Yacute,Ydieresis" 	g2="period,ellipsis" 	k="62" />
<hkern g1="Y,Yacute,Ydieresis" 	g2="comma" 	k="60" />
<hkern g1="Y,Yacute,Ydieresis" 	g2="colon" 	k="34" />
<hkern g1="Y,Yacute,Ydieresis" 	g2="semicolon" 	k="34" />
<hkern g1="Y,Yacute,Ydieresis" 	g2="f,uniFB01,uniFB02,uniFB03,uniFB04" 	k="7" />
<hkern g1="Y,Yacute,Ydieresis" 	g2="g" 	k="52" />
<hkern g1="Y,Yacute,Ydieresis" 	g2="c,e,o,ccedilla,egrave,eacute,ecircumflex,edieresis,ograve,oacute,ocircumflex,otilde,odieresis,oslash,oe" 	k="59" />
<hkern g1="Y,Yacute,Ydieresis" 	g2="eth" 	k="7" />
<hkern g1="Y,Yacute,Ydieresis" 	g2="m,n,r,ntilde" 	k="34" />
<hkern g1="Y,Yacute,Ydieresis" 	g2="s" 	k="41" />
<hkern g1="Y,Yacute,Ydieresis" 	g2="u,ugrave,uacute,ucircumflex,udieresis" 	k="33" />
<hkern g1="Y,Yacute,Ydieresis" 	g2="d,q" 	k="54" />
<hkern g1="Y,Yacute,Ydieresis" 	g2="parenright" 	k="-11" />
<hkern g1="Y,Yacute,Ydieresis" 	g2="question" 	k="-12" />
<hkern g1="Y,Yacute,Ydieresis" 	g2="bracketright" 	k="-18" />
<hkern g1="Y,Yacute,Ydieresis" 	g2="p" 	k="34" />
<hkern g1="Y,Yacute,Ydieresis" 	g2="braceright" 	k="-19" />
<hkern g1="Z" 	g2="C,G,O,Q,Ccedilla,Ograve,Oacute,Ocircumflex,Otilde,Odieresis,Oslash,OE" 	k="14" />
<hkern g1="Z" 	g2="t" 	k="3" />
<hkern g1="Z" 	g2="w" 	k="9" />
<hkern g1="Z" 	g2="y,yacute,ydieresis" 	k="9" />
<hkern g1="Z" 	g2="hyphen,endash,emdash" 	k="73" />
<hkern g1="Z" 	g2="v" 	k="10" />
<hkern g1="Z" 	g2="colon" 	k="5" />
<hkern g1="Z" 	g2="f,uniFB01,uniFB02,uniFB03,uniFB04" 	k="3" />
<hkern g1="Z" 	g2="g" 	k="7" />
<hkern g1="Z" 	g2="c,e,o,ccedilla,egrave,eacute,ecircumflex,edieresis,ograve,oacute,ocircumflex,otilde,odieresis,oslash,oe" 	k="8" />
<hkern g1="Z" 	g2="eth" 	k="4" />
<hkern g1="Z" 	g2="u,ugrave,uacute,ucircumflex,udieresis" 	k="4" />
<hkern g1="Z" 	g2="d,q" 	k="4" />
<hkern g1="bracketleft" 	g2="T" 	k="-21" />
<hkern g1="bracketleft" 	g2="Y,Yacute,Ydieresis" 	k="-18" />
<hkern g1="a,agrave,aacute,acircumflex,atilde,adieresis,aring" 	g2="t" 	k="3" />
<hkern g1="a,agrave,aacute,acircumflex,atilde,adieresis,aring" 	g2="v" 	k="3" />
<hkern g1="a,agrave,aacute,acircumflex,atilde,adieresis,aring" 	g2="f,uniFB01,uniFB02,uniFB03,uniFB04" 	k="3" />
<hkern g1="b,p,thorn" 	g2="T" 	k="96" />
<hkern g1="b,p,thorn" 	g2="Y,Yacute,Ydieresis" 	k="52" />
<hkern g1="b,p,thorn" 	g2="W" 	k="16" />
<hkern g1="b,p,thorn" 	g2="V" 	k="26" />
<hkern g1="b,p,thorn" 	g2="X" 	k="5" />
<hkern g1="b,p,thorn" 	g2="Z" 	k="4" />
<hkern g1="b,p,thorn" 	g2="x" 	k="4" />
<hkern g1="b,p,thorn" 	g2="z" 	k="3" />
<hkern g1="c,ccedilla" 	g2="hyphen,endash,emdash" 	k="23" />
<hkern g1="c,ccedilla" 	g2="eth" 	k="3" />
<hkern g1="f" 	g2="period,ellipsis" 	k="6" />
<hkern g1="f" 	g2="c,e,o,ccedilla,egrave,eacute,ecircumflex,edieresis,ograve,oacute,ocircumflex,otilde,odieresis,oslash,oe" 	k="4" />
<hkern g1="f" 	g2="eth" 	k="3" />
<hkern g1="k" 	g2="a,agrave,aacute,acircumflex,atilde,adieresis,aring,ae" 	k="3" />
<hkern g1="k" 	g2="C,G,O,Q,Ccedilla,Ograve,Oacute,Ocircumflex,Otilde,Odieresis,Oslash,OE" 	k="3" />
<hkern g1="k" 	g2="hyphen,endash,emdash" 	k="5" />
<hkern g1="k" 	g2="g" 	k="7" />
<hkern g1="k" 	g2="c,e,o,ccedilla,egrave,eacute,ecircumflex,edieresis,ograve,oacute,ocircumflex,otilde,odieresis,oslash,oe" 	k="8" />
<hkern g1="k" 	g2="eth" 	k="7" />
<hkern g1="k" 	g2="s" 	k="3" />
<hkern g1="k" 	g2="u,ugrave,uacute,ucircumflex,udieresis" 	k="3" />
<hkern g1="k" 	g2="d,q" 	k="6" />
<hkern g1="h,m,n,ntilde" 	g2="T" 	k="105" />
<hkern g1="h,m,n,ntilde" 	g2="U,Ugrave,Uacute,Ucircumflex,Udieresis" 	k="3" />
<hkern g1="h,m,n,ntilde" 	g2="Y,Yacute,Ydieresis" 	k="51" />
<hkern g1="h,m,n,ntilde" 	g2="W" 	k="16" />
<hkern g1="h,m,n,ntilde" 	g2="V" 	k="26" />
<hkern g1="h,m,n,ntilde" 	g2="f,uniFB01,uniFB02,uniFB03,uniFB04" 	k="3" />
<hkern g1="o,ograve,oacute,ocircumflex,otilde,odieresis,oslash" 	g2="x" 	k="7" />
<hkern g1="o,ograve,oacute,ocircumflex,otilde,odieresis,oslash" 	g2="z" 	k="5" />
<hkern g1="o,ograve,oacute,ocircumflex,otilde,odieresis,oslash" 	g2="f,uniFB01,uniFB02,uniFB03,uniFB04" 	k="3" />
<hkern g1="r" 	g2="hyphen,endash,emdash" 	k="22" />
<hkern g1="r" 	g2="period,ellipsis" 	k="35" />
<hkern g1="r" 	g2="comma" 	k="35" />
<hkern g1="r" 	g2="g" 	k="3" />
<hkern g1="r" 	g2="c,e,o,ccedilla,egrave,eacute,ecircumflex,edieresis,ograve,oacute,ocircumflex,otilde,odieresis,oslash,oe" 	k="6" />
<hkern g1="r" 	g2="eth" 	k="10" />
<hkern g1="r" 	g2="d,q" 	k="4" />
<hkern g1="v" 	g2="period,ellipsis" 	k="22" />
<hkern g1="w" 	g2="period,ellipsis" 	k="15" />
<hkern g1="w" 	g2="comma" 	k="17" />
<hkern g1="x" 	g2="hyphen,endash,emdash" 	k="11" />
<hkern g1="x" 	g2="g" 	k="6" />
<hkern g1="x" 	g2="c,e,o,ccedilla,egrave,eacute,ecircumflex,edieresis,ograve,oacute,ocircumflex,otilde,odieresis,oslash,oe" 	k="7" />
<hkern g1="x" 	g2="d,q" 	k="4" />
<hkern g1="y,yacute,ydieresis" 	g2="period,ellipsis" 	k="24" />
<hkern g1="y,yacute,ydieresis" 	g2="comma" 	k="26" />
<hkern g1="z" 	g2="hyphen,endash,emdash" 	k="17" />
<hkern g1="z" 	g2="g" 	k="4" />
<hkern g1="z" 	g2="c,e,o,ccedilla,egrave,eacute,ecircumflex,edieresis,ograve,oacute,ocircumflex,otilde,odieresis,oslash,oe" 	k="5" />
<hkern g1="z" 	g2="eth" 	k="5" />
<hkern g1="z" 	g2="d,q" 	k="3" />
<hkern g1="braceleft" 	g2="T" 	k="-22" />
<hkern g1="braceleft" 	g2="Y,Yacute,Ydieresis" 	k="-19" />
<hkern g1="braceleft" 	g2="W" 	k="-7" />
<hkern g1="periodcentered" 	g2="B,D,E,F,H,I,K,L,N,P,R,Egrave,Eacute,Ecircumflex,Edieresis,Igrave,Iacute,Icircumflex,Idieresis,Eth,Ntilde,Thorn" 	k="15" />
<hkern g1="Thorn" 	g2="A,Agrave,Aacute,Acircumflex,Atilde,Adieresis,Aring,AE" 	k="6" />
<hkern g1="Thorn" 	g2="T" 	k="50" />
<hkern g1="Thorn" 	g2="Y,Yacute,Ydieresis" 	k="18" />
<hkern g1="Thorn" 	g2="Z" 	k="36" />
<hkern g1="Thorn" 	g2="hyphen,endash,emdash" 	k="6" />
<hkern g1="Thorn" 	g2="period,ellipsis" 	k="78" />
<hkern g1="germandbls" 	g2="t" 	k="3" />
<hkern g1="germandbls" 	g2="w" 	k="3" />
<hkern g1="germandbls" 	g2="y,yacute,ydieresis" 	k="4" />
<hkern g1="germandbls" 	g2="quotedbl,quotesingle" 	k="6" />
<hkern g1="germandbls" 	g2="quoteright,quotedblright" 	k="5" />
<hkern g1="eth" 	g2="z" 	k="3" />
<hkern g1="quoteleft,quotedblleft" 	g2="A,Agrave,Aacute,Acircumflex,Atilde,Adieresis,Aring,AE" 	k="41" />
<hkern g1="quoteleft,quotedblleft" 	g2="B,D,E,F,H,I,K,L,N,P,R,Egrave,Eacute,Ecircumflex,Edieresis,Igrave,Iacute,Icircumflex,Idieresis,Eth,Ntilde,Thorn" 	k="7" />
<hkern g1="quoteleft,quotedblleft" 	g2="J" 	k="36" />
<hkern g1="quoteleft,quotedblleft" 	g2="M" 	k="13" />
<hkern g1="quoteleft,quotedblleft" 	g2="T" 	k="-19" />
<hkern g1="quoteleft,quotedblleft" 	g2="U,Ugrave,Uacute,Ucircumflex,Udieresis" 	k="5" />
<hkern g1="quoteleft,quotedblleft" 	g2="a,agrave,aacute,acircumflex,atilde,adieresis,aring,ae" 	k="8" />
<hkern g1="quoteleft,quotedblleft" 	g2="Y,Yacute,Ydieresis" 	k="-8" />
<hkern g1="quoteleft,quotedblleft" 	g2="C,G,O,Q,Ccedilla,Ograve,Oacute,Ocircumflex,Otilde,Odieresis,Oslash,OE" 	k="6" />
<hkern g1="quoteleft,quotedblleft" 	g2="V" 	k="-10" />
<hkern g1="quoteleft,quotedblleft" 	g2="g" 	k="5" />
<hkern g1="quoteleft,quotedblleft" 	g2="c,e,o,ccedilla,egrave,eacute,ecircumflex,edieresis,ograve,oacute,ocircumflex,otilde,odieresis,oslash,oe" 	k="7" />
<hkern g1="quotesinglbase,quotedblbase" 	g2="B,D,E,F,H,I,K,L,N,P,R,Egrave,Eacute,Ecircumflex,Edieresis,Igrave,Iacute,Icircumflex,Idieresis,Eth,Ntilde,Thorn" 	k="13" />
<hkern g1="quotesinglbase,quotedblbase" 	g2="J" 	k="5" />
<hkern g1="quotesinglbase,quotedblbase" 	g2="M" 	k="6" />
<hkern g1="quotesinglbase,quotedblbase" 	g2="T" 	k="61" />
<hkern g1="quotesinglbase,quotedblbase" 	g2="U,Ugrave,Uacute,Ucircumflex,Udieresis" 	k="30" />
<hkern g1="quotesinglbase,quotedblbase" 	g2="Y,Yacute,Ydieresis" 	k="62" />
<hkern g1="quotesinglbase,quotedblbase" 	g2="C,G,O,Q,Ccedilla,Ograve,Oacute,Ocircumflex,Otilde,Odieresis,Oslash,OE" 	k="36" />
<hkern g1="quotesinglbase,quotedblbase" 	g2="W" 	k="45" />
<hkern g1="quotesinglbase,quotedblbase" 	g2="t" 	k="6" />
<hkern g1="quotesinglbase,quotedblbase" 	g2="w" 	k="14" />
<hkern g1="quotesinglbase,quotedblbase" 	g2="y,yacute,ydieresis" 	k="24" />
<hkern g1="quotesinglbase,quotedblbase" 	g2="V" 	k="57" />
<hkern g1="quotesinglbase,quotedblbase" 	g2="v" 	k="21" />
</font>
</defs></svg> 